<?xml version="1.0" encoding="UTF-8" standalone="no"?>
<!DOCTYPE svg PUBLIC "-//W3C//DTD SVG 1.1//EN" "http://www.w3.org/Graphics/SVG/1.1/DTD/svg11.dtd">
<!-- Gerado pelo Microsoft Visio, SVG Export arquitetura.svg Page-1 -->
<svg xmlns="http://www.w3.org/2000/svg" xmlns:xlink="http://www.w3.org/1999/xlink" xmlns:ev="http://www.w3.org/2001/xml-events"
		width="10.2493in" height="7.24048in" viewBox="0 0 737.95 521.314" xml:space="preserve" color-interpolation-filters="sRGB"
		class="st25">
	<style type="text/css">
	<![CDATA[
		.st1 {fill:#ffffff;stroke:#000000;stroke-linecap:round;stroke-linejoin:round;stroke-width:0.75;visibility:hidden}
		.st2 {fill:#ffffff;stroke:#000000;stroke-linecap:round;stroke-linejoin:round;stroke-width:0.75}
		.st3 {fill:#0070c0;font-family:Calibri;font-size:1.00001em;font-weight:bold}
		.st4 {fill:#000000;font-family:Calibri;font-size:1.00001em}
		.st5 {fill:none;stroke:none;stroke-linecap:round;stroke-linejoin:round;stroke-width:0.75}
		.st6 {fill:#f2f2f2;fill-opacity:0.6;stroke:none;stroke-linecap:round;stroke-linejoin:round;stroke-width:0.75;visibility:hidden}
		.st7 {fill:#8f8f8f;fill-opacity:0;stroke:none;stroke-linecap:butt;stroke-width:0.75}
		.st8 {fill:url(#grad10-54);stroke:none;stroke-linecap:butt;stroke-width:0.75}
		.st9 {fill:url(#grad7-62);stroke:none;stroke-linecap:butt;stroke-width:0.75}
		.st10 {fill:#333333;fill-opacity:0;stroke:none;stroke-linecap:butt;stroke-width:0.75}
		.st11 {stroke:#000000;stroke-linecap:round;stroke-linejoin:round;stroke-width:0.24}
		.st12 {fill:#000000;font-family:Calibri;font-size:1.16666em}
		.st13 {fill:#ffffff;stroke:none;stroke-linecap:butt;stroke-width:0.75}
		.st14 {fill:#515050;stroke:none;stroke-linecap:butt;stroke-width:0.75}
		.st15 {fill:#515150;stroke:none;stroke-linecap:butt;stroke-width:0.75}
		.st16 {stroke:#000000;stroke-linecap:round;stroke-linejoin:round;stroke-width:0.75}
		.st17 {fill:#ffffff;stroke:none;stroke-linecap:butt}
		.st18 {fill:#000000;font-family:Calibri;font-size:0.666664em}
		.st19 {font-size:1.50002em;font-weight:bold}
		.st20 {font-size:1.37501em;font-weight:bold}
		.st21 {fill:#000000;font-family:Symbol;font-size:1.00001em}
		.st22 {font-size:1em}
		.st23 {font-family:Calibri;font-size:1em}
		.st24 {fill:#ffffff;stroke:none;stroke-linecap:butt;stroke-width:7.2}
		.st25 {fill:none;fill-rule:evenodd;font-size:12px;overflow:visible;stroke-linecap:square;stroke-miterlimit:3}
	]]>
	</style>

	<defs id="Patterns_And_Gradients">
		<pattern id="grad10-54" x="0" y="0" width="1" height="1" patternContentUnits="objectBoundingBox">
			<path d="M 0.5 0.5 L 0 0 L 0 1 z" style="fill:url(#grad0-55)"/>
			<path d="M 0.5 0.5 L 1 0 L 1 1 z" style="fill:url(#grad0-56)"/>
			<path d="M 0.5 0.5 L 0 0 L 1 0 z" style="fill:url(#grad0-57)"/>
			<path d="M 0.5 0.5 L 0 1 L 1 1 z" style="fill:url(#grad0-58)"/>
		</pattern>
		<linearGradient id="grad0-55" x1="0" y1="0" x2="1" y2="0" gradientTransform="rotate(180 0.5 0.5)">
			<stop offset="0" stop-color="#ffffff" stop-opacity="0"/>
			<stop offset="1" stop-color="#e6e6e6" stop-opacity="0"/>
		</linearGradient>
		<linearGradient id="grad0-56" x1="0" y1="0" x2="1" y2="0" gradientTransform="rotate(360 0.5 0.5)">
			<stop offset="0" stop-color="#ffffff" stop-opacity="0"/>
			<stop offset="1" stop-color="#e6e6e6" stop-opacity="0"/>
		</linearGradient>
		<linearGradient id="grad0-57" x1="0" y1="0" x2="1" y2="0" gradientTransform="rotate(270 0.5 0.5)">
			<stop offset="0" stop-color="#ffffff" stop-opacity="0"/>
			<stop offset="1" stop-color="#e6e6e6" stop-opacity="0"/>
		</linearGradient>
		<linearGradient id="grad0-58" x1="0" y1="0" x2="1" y2="0" gradientTransform="rotate(90 0.5 0.5)">
			<stop offset="0" stop-color="#ffffff" stop-opacity="0"/>
			<stop offset="1" stop-color="#e6e6e6" stop-opacity="0"/>
		</linearGradient>
		<radialGradient id="grad7-62" cx="0" cy="0" r="1.4">
			<stop offset="0" stop-color="#333333" stop-opacity="0"/>
			<stop offset="1" stop-color="#000000" stop-opacity="0"/>
		</radialGradient>
		<radialGradient id="grad6-76" cx="1" cy="0" r="1.4">
			<stop offset="0" stop-color="#cb2028" stop-opacity="1"/>
			<stop offset="1" stop-color="#ff4e3b" stop-opacity="1"/>
		</radialGradient>
	</defs>
	<g>
		<title>Página-1</title>
		<g id="group54-1" transform="translate(19.6357,-322.932)">
			<title>Cantos</title>
			<g id="shape54-2">
				<rect x="0" y="341.307" width="509.401" height="180.007" class="st1"/>
			</g>
			<g id="group55-4">
				<title>Planilha.55</title>
				<g id="shape56-5">
					<title>Planilha.56</title>
					<path d="M0 521.31 L12.76 521.31 L12.76 519.19 L2.13 519.19 L2.13 508.56 L0 508.56 L0 521.31 Z" class="st2"/>
				</g>
				<g id="shape57-7" transform="translate(496.645,-167.251)">
					<title>Planilha.57</title>
				</g>
				<g id="shape58-9" transform="translate(496.645,-167.251)">
					<title>Planilha.58</title>
					<path d="M12.76 508.56 L0 508.56 L0 510.68 L10.63 510.68 L10.63 521.31 L12.76 521.31 L12.76 508.56 Z"
							class="st2"/>
				</g>
				<g id="shape59-11">
					<title>Planilha.59</title>
					<path d="M509.4 521.31 L496.64 521.31 L496.64 519.19 L507.27 519.19 L507.27 508.56 L509.4 508.56 L509.4 521.31
								 ZM0 341.31 L0 354.06 L2.13 354.06 L2.13 343.43 L12.76 343.43 L12.76 341.31 L0 341.31 Z"
							class="st2"/>
				</g>
				<g id="shape60-13" transform="translate(496.645,0)">
					<title>Planilha.60</title>
				</g>
				<g id="shape55-15">
					<rect x="0" y="341.307" width="509.401" height="180.007" class="st1"/>
				</g>
			</g>
			<g id="shape61-17" transform="translate(0,-157.603)">
				<title>Planilha.61</title>
				<desc>Componentes Web</desc>
				<rect x="0" y="498.911" width="509.401" height="22.4037" class="st1"/>
				<text x="206.98" y="513.71" class="st3">Componentes Web</text>			</g>
		</g>
		<g id="group63-20" transform="translate(18.375,-175.113)">
			<title>Cantos.63</title>
			<g id="shape63-21">
				<rect x="0" y="374.05" width="510.661" height="147.265" class="st1"/>
			</g>
			<g id="group64-23">
				<title>Planilha.64</title>
				<g id="shape65-24">
					<title>Planilha.65</title>
					<path d="M0 521.31 L12.76 521.31 L12.76 519.19 L2.13 519.19 L2.13 508.56 L0 508.56 L0 521.31 Z" class="st2"/>
				</g>
				<g id="shape66-26" transform="translate(497.906,-134.509)">
					<title>Planilha.66</title>
				</g>
				<g id="shape67-28" transform="translate(497.906,-134.509)">
					<title>Planilha.67</title>
					<path d="M12.76 508.56 L0 508.56 L0 510.68 L10.63 510.68 L10.63 521.31 L12.76 521.31 L12.76 508.56 Z"
							class="st2"/>
				</g>
				<g id="shape68-30">
					<title>Planilha.68</title>
					<path d="M510.66 521.31 L497.91 521.31 L497.91 519.19 L508.54 519.19 L508.54 508.56 L510.66 508.56 L510.66 521.31
								 ZM0 374.05 L0 386.81 L2.13 386.81 L2.13 376.18 L12.76 376.18 L12.76 374.05 L0 374.05 Z"
							class="st2"/>
				</g>
				<g id="shape69-32" transform="translate(497.906,0)">
					<title>Planilha.69</title>
				</g>
				<g id="shape64-34">
					<rect x="0" y="374.05" width="510.661" height="147.265" class="st1"/>
				</g>
			</g>
			<g id="shape70-36" transform="translate(0,-124.861)">
				<title>Planilha.70</title>
				<desc>Framework JS</desc>
				<rect x="0" y="498.911" width="510.661" height="22.4037" class="st1"/>
				<text x="220.69" y="513.71" class="st3">Framework JS</text>			</g>
		</g>
		<g id="group1-39" transform="translate(153.175,-331.436)">
			<title>HTML</title>
			<desc>HTML 5</desc>
			<g id="shape1-40">
				<rect x="64.6427" y="483.185" width="53.6487" height="16.4037" class="st2"/>
				<text x="78.14" y="494.99" class="st4">HTML 5</text>			</g>
			<g id="shape2-43" transform="translate(9.50487,0)">
				<title>Planilha.2</title>
				<rect x="0" y="461.46" width="50.3494" height="59.8543" class="st5"/>
				<svg viewBox="0 0 22.48 26.16" clip="rect(3.85767 3.8577 3.85767 3.8577)" height="67.5697" overflow="hidden"
						preserveAspectRatio="none" width="58.0648" x="-3.8577" y="457.602">
					<defs>
						<path id="mfid1"
								d="M1.5,1.523 L1.5,24.646 L20.996,24.646 L20.996,6.388 C20.996,6.388 17.422,5.745 16.273,5.745 C16.248,4.944 16.265,5.005 16.156,1.522 L1.5,1.522 L1.5,1.523 Z"/>
					</defs>
					<g>
						<g text-rendering="geometricPrecision">
							<g fill="#5a5a5a">
								<use xlink:href="#mfid1" fill-rule="evenodd" stroke="none"/>
								<defs>
									<path id="mfid2"
											d="M2,2.023 L2,24.146 L20.496,24.146 L20.496,6.246 C20.496,6.246 16.228,5.537 16.117,2.023 L2,2.023 Z"/>
								</defs>
							</g>
							<g fill="#ffffff">
								<use xlink:href="#mfid2" fill-rule="evenodd" stroke="none"/>
							</g>
						</g>
					</g>
					<!-- GetDC -->
					<!-- Released DC -->
					<defs>
						<path id="mfid3" d="M16.216,1.5 L15.822,1.5 L15.822,6.871 L20.971,6.871 L20.971,6.332 L16.216,1.5 Z"/>
					</defs>
					<mask id="mfid4">
						<use xlink:href="#mfid3" fill-rule="evenodd" fill="white" stroke="none"/>
					</mask>
					<mask id="mfid5" fill="white" stroke="none">
						<g>
							<g mask="url(#mfid4)">
								<rect width="22.48" height="26.16" id="mfid6"/>
							</g>
						</g>
					</mask>
					<defs>
						<path id="mfid7" d="M-0.010417,-0.010417 L0.064052,-0.010417 L0.064052,0.066365 L-0.010417,0.066365 Z"/>
					</defs>
					<radialGradient id="mfid8">
						<stop offset="0" stop-color="#c6c6c6"/>
						<stop offset="1" stop-color="#606060"/>
					</radialGradient>
					<g mask="url(#mfid5)">
						<g text-rendering="geometricPrecision">
							<g transform="matrix(96, 0, 0, -96, 15.822, 6.871)">
								<g fill="white">
									<mask id="mfid9" x="-0.010417" y="-0.010417" width="0.074469" height="0.076781"
											maskUnits="userSpaceOnUse">
										<rect x="-0.010417" y="-0.010417" width="0.074469" height="0.076781" stroke="none"/>
									</mask>
									<use xlink:href="#mfid7" stroke="none" mask="url(#mfid9)" fill="url(#mfid8)"/>
									<defs>
										<path id="mfid10" d="M16.322,6.371 L20.305,6.371 L16.322,2.371 L16.322,6.371 Z"/>
									</defs>
								</g>
							</g>
						</g>
					</g>
					<g>
						<g text-rendering="geometricPrecision">
							<g fill="#ffffff">
								<use xlink:href="#mfid10" fill-rule="evenodd" stroke="none"/>
							</g>
						</g>
					</g>
					<!-- GetDC -->
					<!-- Released DC -->
					<defs>
						<path id="mfid11"
								d="M16.902,14.326 C16.902,14.176 16.89,14.029 16.88,13.882 L16.88,14.771 C16.891,14.623 16.902,14.476 16.902,14.326 Z"/>
					</defs>
					<mask id="mfid12">
						<use xlink:href="#mfid11" fill-rule="evenodd" fill="white" stroke="none"/>
					</mask>
					<mask id="mfid13" fill="white" stroke="none">
						<g>
							<g mask="url(#mfid12)">
								<use xlink:href="#mfid6"/>
							</g>
						</g>
					</mask>
					<defs>
						<path id="mfid14"
								d="M0.01937,-0.010417 C0.01937,0.013088 0.0060342,0.032142 -0.010417,0.032142 C-0.026868,0.032142 -0.040204,0.013088 -0.040204,-0.010417 C-0.040204,-0.033921 -0.026868,-0.052976 -0.010417,-0.052976 C0.0060342,-0.052976 0.01937,-0.033921 0.01937,-0.010417 Z"/>
					</defs>
					<radialGradient id="mfid15">
						<stop offset="0" stop-color="#1a4795"/>
						<stop offset="0.70711" stop-color="#086bc2"/>
						<stop offset="1" stop-color="#086bc2"/>
					</radialGradient>
					<g mask="url(#mfid13)">
						<g text-rendering="geometricPrecision">
							<g transform="matrix(96, 0, 0, -96, 16.88, 14.771)">
								<g fill="white">
									<mask id="mfid16" x="-0.010417" y="-0.010417" width="0.021063" height="0.030094"
											maskUnits="userSpaceOnUse">
										<rect x="-0.010417" y="-0.010417" width="0.021063" height="0.030094" stroke="none"/>
									</mask>
									<use xlink:href="#mfid14" stroke="none" mask="url(#mfid16)" fill="url(#mfid15)"/>
								</g>
							</g>
						</g>
					</g>
					<!-- GetDC -->
					<!-- Released DC -->
					<defs>
						<path id="mfid17"
								d="M16.658,15.757 C16.596,15.718 16.545,15.282 16.545,15.282 L16.58,14.909 L16.391,14.987 C16.391,14.987 16.366,14.909 16.225,14.883 C16.082,14.858 16.006,15.294 15.889,15.319 C15.776,15.346 15.61,15.551 15.479,15.538 C15.35,15.526 15.26,15.36 15.236,15.23 C15.209,15.103 15.12,15.103 14.914,14.987 C14.71,14.87 14.851,14.473 14.889,14.331 C14.929,14.19 14.8,14.126 14.761,13.677 C14.722,13.229 15.042,12.766 14.991,12.726 C14.942,12.689 15.03,12.381 14.966,12.29 C14.903,12.2 15.042,12.163 15.209,12.124 C15.377,12.085 15.389,11.688 15.532,11.597 C15.671,11.509 15.776,11.995 15.776,11.995 C15.864,12.073 16.094,12.007 16.094,12.007 L16.137,11.777 L16.248,11.689 L16.441,12.059 C16.236,11.578 15.964,11.132 15.644,10.729 C15.642,10.74 15.581,11.129 15.492,11.212 C15.402,11.296 15.041,11.021 15.041,11.021 C15.041,11.021 14.941,11.225 14.965,11.291 C14.99,11.354 15.068,11.65 15.068,11.65 C15.068,11.65 15.12,11.92 14.942,11.996 C14.76,12.074 14.645,11.92 14.581,11.754 C14.518,11.586 14.427,11.443 14.413,11.341 C14.401,11.238 14.606,11.302 14.71,11.238 C14.812,11.174 14.375,10.828 14.375,10.828 L14.541,10.529 C14.541,10.529 14.362,10.174 14.427,10.148 C14.49,10.121 14.53,9.943 14.427,9.837 C14.324,9.737 13.939,9.504 13.939,9.504 C13.939,9.504 14.196,9.749 14.274,9.876 C14.352,10.006 14.183,10.083 14.183,10.083 C14.183,10.083 14.158,10.006 14.12,9.864 C14.081,9.722 13.89,9.837 13.89,9.837 C13.89,9.837 13.709,9.749 13.606,9.696 C13.503,9.645 13.566,9.517 13.554,9.465 C13.543,9.415 13.285,9.261 13.143,9.171 C13.001,9.081 13.093,8.927 13.093,8.927 C13.179,8.932 13.279,8.965 13.377,8.995 C12.682,8.7 11.917,8.536 11.114,8.536 C7.917,8.536 5.325,11.128 5.325,14.325 C5.325,17.522 7.917,20.114 11.114,20.114 C13.956,20.114 16.315,18.064 16.805,15.364 C16.756,15.566 16.694,15.779 16.658,15.757 Z M7.646,15.732 C7.646,15.732 7.262,15.603 7.274,15.347 C7.288,15.089 7.12,14.87 7.12,14.87 C7.12,14.87 6.903,14.87 6.916,14.794 C6.93,14.716 6.685,14.384 6.685,14.384 L6.443,14.331 C6.443,14.331 6.173,13.869 6.183,13.702 C6.199,13.536 5.947,12.558 6.183,11.79 C6.463,10.886 7.045,10.109 7.75,9.634 C8.457,9.16 8.917,9.003 8.917,9.003 C8.917,9.003 8.842,9.261 8.995,9.275 C9.148,9.287 9.139,8.914 9.342,9.004 C9.388,9.024 9.488,9.041 9.61,9.056 C9.613,9.067 9.61,9.08 9.619,9.086 C9.685,9.132 10.018,9.137 10.227,9.135 C10.52,9.179 10.775,9.242 10.791,9.351 C10.83,9.594 10.55,10.006 10.306,10.006 C10.061,10.006 10.022,9.787 10.022,9.787 C10.022,9.787 9.714,9.697 9.676,9.761 C9.637,9.827 9.33,9.813 9.305,9.75 C9.278,9.685 8.676,9.89 8.789,10.121 C8.904,10.353 9.175,10.339 9.111,10.48 C9.047,10.622 9.061,10.777 9.124,10.777 C9.187,10.777 9.51,10.431 9.521,10.263 C9.532,10.095 9.738,9.837 9.855,9.915 C9.97,9.992 9.933,10.173 9.997,10.198 C10.061,10.223 10.162,9.967 10.332,10.184 C10.498,10.403 10.586,10.582 10.652,10.645 C10.715,10.709 10.652,11.043 10.755,11.148 C10.856,11.251 10.973,11.237 10.973,11.237 C10.973,11.237 10.743,11.416 10.627,11.352 C10.511,11.289 10.586,10.98 10.433,11.032 C10.279,11.083 9.934,11.044 9.934,11.044 C9.934,11.044 9.934,11.366 10.061,11.442 C10.19,11.519 10.177,11.753 9.984,11.713 C9.792,11.674 9.739,11.585 9.739,11.585 C9.739,11.585 9.419,11.815 9.432,11.866 C9.446,11.919 9.112,11.944 9.112,11.944 L8.828,12.225 C8.828,12.225 8.649,12.7 8.432,12.739 C8.213,12.778 8.122,13.112 8.122,13.151 C8.122,13.19 8.109,13.753 7.993,13.702 C7.879,13.65 7.981,13.37 7.981,13.37 L7.852,13.048 L7.456,12.87 L7.393,12.984 L6.995,12.818 C6.995,12.818 6.916,12.818 6.891,12.984 C6.865,13.152 6.763,13.332 6.685,13.396 C6.611,13.459 6.711,13.986 6.66,13.986 C6.611,13.986 6.931,14.178 6.931,14.178 L7.071,13.998 L7.342,14.011 C7.342,14.011 7.06,14.474 7.151,14.536 C7.24,14.6 7.573,14.731 7.561,14.87 C7.548,15.011 7.548,15.424 7.548,15.424 L7.727,15.577 L7.646,15.732 Z M12.643,18.042 C12.643,18.042 12.423,18.157 12.45,18.401 C12.473,18.647 12.348,18.594 12.22,18.798 C12.091,19.004 11.694,18.94 11.577,18.951 C11.462,18.965 11.448,19.004 11.359,19.222 C11.269,19.44 10.715,19.62 10.653,19.645 C10.587,19.671 10.049,19.964 10.049,19.964 C10.049,19.964 9.47,19.825 9.367,19.761 C9.265,19.697 9.213,19.427 9.213,19.387 C9.213,19.349 9.149,18.862 9.149,18.618 C9.149,18.374 8.868,18.321 8.751,18.297 C8.638,18.271 8.419,18.092 8.315,17.86 C8.213,17.628 8.086,17.474 7.994,17.399 C7.904,17.32 7.842,16.975 7.842,16.975 C7.842,16.975 7.775,16.9 7.736,16.796 C7.697,16.694 7.879,16.54 7.993,16.411 C8.109,16.283 8.098,15.897 8.098,15.897 C8.29,15.833 8.341,15.538 8.341,15.538 L8.66,15.552 C8.66,15.552 8.609,15.706 8.775,15.757 C8.942,15.808 8.84,15.565 8.994,15.577 C9.147,15.591 9.509,15.885 9.509,15.885 C9.509,15.885 9.546,15.769 9.675,15.706 C9.802,15.641 10.38,16.372 10.38,16.372 C10.38,16.372 10.894,16.399 11.062,16.54 C11.23,16.683 11.103,17.13 11.242,17.092 C11.383,17.054 12.09,17.284 12.09,17.284 C12.09,17.284 12.578,17.322 12.655,17.361 C12.73,17.401 12.935,17.31 13,17.424 C13.063,17.542 12.643,18.042 12.643,18.042 Z"/>
					</defs>
					<mask id="mfid18">
						<use xlink:href="#mfid17" fill-rule="evenodd" fill="white" stroke="none"/>
					</mask>
					<mask id="mfid19" fill="white" stroke="none">
						<g>
							<g mask="url(#mfid18)">
								<use xlink:href="#mfid6"/>
							</g>
						</g>
					</mask>
					<defs>
						<path id="mfid20"
								d="M0.32858,-0.010417 C0.32858,0.10005 0.23967,0.18961 0.13,0.18961 C0.020328,0.18961 -0.068579,0.10005 -0.068579,-0.010417 C-0.068579,-0.12089 0.020328,-0.21044 0.13,-0.21044 C0.23967,-0.21044 0.32858,-0.12089 0.32858,-0.010417 Z"/>
					</defs>
					<radialGradient id="mfid21">
						<stop offset="0" stop-color="#1a4795"/>
						<stop offset="0.70711" stop-color="#086bc2"/>
						<stop offset="1" stop-color="#086bc2"/>
					</radialGradient>
					<g mask="url(#mfid19)">
						<g text-rendering="geometricPrecision">
							<g transform="matrix(96, 0, 0, -96, 5.325, 20.114)">
								<g fill="white">
									<mask id="mfid22" x="-0.010417" y="-0.010417" width="0.14042" height="0.14144"
											maskUnits="userSpaceOnUse">
										<rect x="-0.010417" y="-0.010417" width="0.14042" height="0.14144" stroke="none"/>
									</mask>
									<use xlink:href="#mfid20" stroke="none" mask="url(#mfid22)" fill="url(#mfid21)"/>
								</g>
							</g>
						</g>
					</g>
					<!-- GetDC -->
					<!-- Released DC -->
					<defs>
						<path id="mfid23"
								d="M14.643,9.744 C14.938,10.019 15.567,10.647 15.632,10.713 C15.342,10.351 15.01,10.027 14.643,9.744 Z"/>
					</defs>
					<mask id="mfid24">
						<use xlink:href="#mfid23" fill-rule="evenodd" fill="white" stroke="none"/>
					</mask>
					<mask id="mfid25" fill="white" stroke="none">
						<g>
							<g mask="url(#mfid24)">
								<use xlink:href="#mfid6"/>
							</g>
						</g>
					</mask>
					<defs>
						<path id="mfid26"
								d="M0.027167,0.0050469 C0.027167,0.017125 0.01731,0.026916 0.005151,0.026916 C-0.0070081,0.026916 -0.016865,0.017125 -0.016865,0.0050469 C-0.016865,-0.0070309 -0.0070081,-0.016822 0.005151,-0.016822 C0.01731,-0.016822 0.027167,-0.0070309 0.027167,0.0050469 Z"/>
					</defs>
					<radialGradient id="mfid27">
						<stop offset="0" stop-color="#1a4795"/>
						<stop offset="0.70711" stop-color="#086bc2"/>
						<stop offset="1" stop-color="#086bc2"/>
					</radialGradient>
					<g mask="url(#mfid25)">
						<g text-rendering="geometricPrecision">
							<g transform="matrix(96, 0, 0, -96, 14.643, 10.713)">
								<g fill="white">
									<mask id="mfid28" x="-0.010417" y="-0.010417" width="0.031135" height="0.030927"
											maskUnits="userSpaceOnUse">
										<rect x="-0.010417" y="-0.010417" width="0.031135" height="0.030927" stroke="none"/>
									</mask>
									<use xlink:href="#mfid26" stroke="none" mask="url(#mfid28)" fill="url(#mfid27)"/>
								</g>
							</g>
						</g>
					</g>
					<!-- GetDC -->
					<!-- Released DC -->
					<defs>
						<path id="mfid29" d="M16.489,12.186 L16.81,13.33 C16.742,12.933 16.635,12.55 16.489,12.186 Z"/>
					</defs>
					<mask id="mfid30">
						<use xlink:href="#mfid29" fill-rule="evenodd" fill="white" stroke="none"/>
					</mask>
					<mask id="mfid31" fill="white" stroke="none">
						<g>
							<g mask="url(#mfid30)">
								<use xlink:href="#mfid6"/>
							</g>
						</g>
					</mask>
					<defs>
						<path id="mfid32"
								d="M0.023775,-0.010417 C0.023775,0.015163 0.0084668,0.035899 -0.010417,0.035899 C-0.0293,0.035899 -0.044608,0.015163 -0.044608,-0.010417 C-0.044608,-0.035996 -0.0293,-0.056732 -0.010417,-0.056732 C0.0084668,-0.056732 0.023775,-0.035996 0.023775,-0.010417 Z"/>
					</defs>
					<radialGradient id="mfid33">
						<stop offset="0" stop-color="#1a4795"/>
						<stop offset="0.70711" stop-color="#086bc2"/>
						<stop offset="1" stop-color="#086bc2"/>
					</radialGradient>
					<g mask="url(#mfid31)">
						<g text-rendering="geometricPrecision">
							<g transform="matrix(96, 0, 0, -96, 16.489, 13.33)">
								<g fill="white">
									<mask id="mfid34" x="-0.010417" y="-0.010417" width="0.024177" height="0.03275"
											maskUnits="userSpaceOnUse">
										<rect x="-0.010417" y="-0.010417" width="0.024177" height="0.03275" stroke="none"/>
									</mask>
									<use xlink:href="#mfid32" stroke="none" mask="url(#mfid34)" fill="url(#mfid33)"/>
								</g>
							</g>
						</g>
					</g>
					<!-- GetDC -->
					<!-- Released DC -->
					<defs>
						<path id="mfid35"
								d="M7.558,14.871 C7.57,14.732 7.237,14.601 7.148,14.537 C7.057,14.474 7.339,14.012 7.339,14.012 L7.068,13.999 L6.928,14.179 C6.928,14.179 6.609,13.987 6.657,13.987 C6.709,13.987 6.608,13.461 6.682,13.397 C6.76,13.333 6.862,13.153 6.888,12.985 C6.913,12.819 6.992,12.819 6.992,12.819 L7.39,12.985 L7.453,12.871 L7.849,13.05 L7.978,13.372 C7.978,13.372 7.875,13.652 7.99,13.704 C8.106,13.755 8.119,13.192 8.119,13.153 C8.119,13.114 8.21,12.78 8.429,12.741 C8.646,12.702 8.825,12.227 8.825,12.227 L9.109,11.946 C9.109,11.946 9.443,11.921 9.429,11.868 C9.415,11.817 9.736,11.587 9.736,11.587 C9.736,11.587 9.789,11.676 9.981,11.715 C10.174,11.755 10.187,11.522 10.058,11.444 C9.934,11.367 9.934,11.044 9.934,11.044 C9.934,11.044 10.28,11.083 10.433,11.032 C10.586,10.98 10.511,11.29 10.627,11.352 C10.742,11.415 10.973,11.237 10.973,11.237 C10.973,11.237 10.855,11.251 10.755,11.149 C10.652,11.044 10.715,10.71 10.652,10.646 C10.586,10.583 10.498,10.404 10.332,10.185 C10.162,9.967 10.061,10.224 9.997,10.199 C9.933,10.174 9.971,9.993 9.855,9.916 C9.738,9.838 9.533,10.096 9.521,10.264 C9.509,10.432 9.188,10.777 9.124,10.777 C9.06,10.777 9.047,10.622 9.111,10.48 C9.174,10.339 8.904,10.353 8.789,10.121 C8.676,9.89 9.278,9.685 9.305,9.75 C9.33,9.813 9.637,9.827 9.676,9.761 C9.714,9.697 10.022,9.787 10.022,9.787 C10.022,9.787 10.061,10.006 10.306,10.006 C10.55,10.006 10.83,9.594 10.791,9.351 C10.775,9.242 10.52,9.179 10.228,9.135 C10.019,9.137 9.686,9.132 9.619,9.086 C9.61,9.081 9.613,9.067 9.61,9.056 C9.488,9.041 9.388,9.024 9.342,9.003 C9.139,8.913 9.149,9.286 8.995,9.274 C8.842,9.261 8.917,9.003 8.917,9.003 C8.917,9.003 8.457,9.16 7.75,9.634 C7.045,10.109 6.463,10.886 6.182,11.79 C5.946,12.559 6.198,13.536 6.182,13.702 C6.172,13.869 6.442,14.331 6.442,14.331 L6.684,14.384 C6.684,14.384 6.929,14.716 6.915,14.794 C6.902,14.87 7.119,14.87 7.119,14.87 C7.119,14.87 7.287,15.089 7.273,15.347 C7.261,15.603 7.645,15.732 7.645,15.732 L7.723,15.578 L7.544,15.425 C7.545,15.424 7.545,15.011 7.558,14.871 Z"/>
					</defs>
					<mask id="mfid36">
						<use xlink:href="#mfid35" fill-rule="evenodd" fill="white" stroke="none"/>
					</mask>
					<mask id="mfid37" fill="white" stroke="none">
						<g>
							<g mask="url(#mfid36)">
								<use xlink:href="#mfid6"/>
							</g>
						</g>
					</mask>
					<defs>
						<path id="mfid38" d="M-0.0090148,-0.010417 L0.062781,-0.010417 L0.062781,0.080653 L-0.0090148,0.080653 Z"/>
					</defs>
					<radialGradient id="mfid39">
						<stop offset="0" stop-color="#42bc33"/>
						<stop offset="1" stop-color="#bde1a1"/>
					</radialGradient>
					<g mask="url(#mfid37)">
						<g text-rendering="geometricPrecision">
							<g transform="matrix(96, 0, 0, -96, 5.946, 15.732)">
								<g fill="white">
									<mask id="mfid40" x="-0.0090148" y="-0.010417" width="0.071796" height="0.09107"
											maskUnits="userSpaceOnUse">
										<rect x="-0.0090148" y="-0.010417" width="0.071796" height="0.09107" stroke="none"/>
									</mask>
									<use xlink:href="#mfid38" stroke="none" mask="url(#mfid40)" fill="url(#mfid39)"/>
								</g>
							</g>
						</g>
					</g>
					<!-- GetDC -->
					<!-- Released DC -->
					<defs>
						<path id="mfid41"
								d="M12.655,17.362 C12.578,17.323 12.09,17.285 12.09,17.285 C12.09,17.285 11.383,17.055 11.242,17.093 C11.103,17.131 11.23,16.684 11.062,16.541 C10.894,16.4 10.38,16.373 10.38,16.373 C10.38,16.373 9.802,15.642 9.675,15.707 C9.546,15.77 9.509,15.886 9.509,15.886 C9.509,15.886 9.148,15.592 8.994,15.578 C8.841,15.565 8.942,15.808 8.775,15.758 C8.609,15.707 8.66,15.553 8.66,15.553 L8.341,15.539 C8.341,15.539 8.29,15.834 8.098,15.898 C8.098,15.898 8.109,16.284 7.993,16.412 C7.879,16.541 7.697,16.695 7.736,16.797 C7.775,16.901 7.84,16.979 7.84,16.979 C7.84,16.979 7.903,17.324 7.992,17.403 C8.084,17.478 8.212,17.632 8.313,17.864 C8.417,18.095 8.635,18.274 8.749,18.301 C8.866,18.325 9.147,18.378 9.147,18.622 C9.147,18.865 9.211,19.352 9.211,19.391 C9.211,19.431 9.264,19.701 9.365,19.765 C9.468,19.829 10.047,19.968 10.047,19.968 C10.047,19.968 10.584,19.675 10.651,19.649 C10.714,19.625 11.267,19.444 11.357,19.226 C11.446,19.007 11.46,18.968 11.575,18.955 C11.691,18.943 12.089,19.008 12.218,18.802 C12.347,18.598 12.472,18.651 12.448,18.405 C12.422,18.161 12.641,18.046 12.641,18.046 C12.641,18.046 13.062,17.546 12.998,17.429 C12.936,17.311 12.73,17.402 12.655,17.362 Z"/>
					</defs>
					<mask id="mfid42">
						<use xlink:href="#mfid41" fill-rule="evenodd" fill="white" stroke="none"/>
					</mask>
					<mask id="mfid43" fill="white" stroke="none">
						<g>
							<g mask="url(#mfid42)">
								<use xlink:href="#mfid6"/>
							</g>
						</g>
					</mask>
					<linearGradient id="mfid44" gradientUnits="userSpaceOnUse" x1="-0.010066" y1="0.023068" x2="0.065704"
							y2="0.023068" spreadMethod="repeat"
							gradientTransform="matrix(-0.0000009833, 0.88383, -1.1314, -0.00000013907, 0.053919, -0.0015196)">
						<stop offset="0" stop-color="#19a94e"/>
						<stop offset="1" stop-color="#abd782"/>
					</linearGradient>
					<g mask="url(#mfid43)">
						<g text-rendering="geometricPrecision">
							<g transform="matrix(96, 0, 0, -96, 7.697, 19.968)">
								<g fill="url(#mfid44)">
									<rect x="-0.010066" y="-0.010417" width="0.075771" height="0.066969" stroke="none"/>
								</g>
							</g>
						</g>
					</g>
					<!-- GetDC -->
					<!-- Released DC -->
					<defs>
						<path id="mfid45"
								d="M16.468,12.111 L16.442,12.059 C16.46,12.101 16.473,12.144 16.49,12.186 L16.468,12.111 Z"/>
					</defs>
					<mask id="mfid46">
						<use xlink:href="#mfid45" fill-rule="evenodd" fill="white" stroke="none"/>
					</mask>
					<mask id="mfid47" fill="white" stroke="none">
						<g>
							<g mask="url(#mfid46)">
								<use xlink:href="#mfid6"/>
							</g>
						</g>
					</mask>
					<linearGradient id="mfid48" gradientUnits="userSpaceOnUse" x1="-0.010417" y1="0.00066146" x2="0.010917"
							y2="0.00066146" spreadMethod="repeat"
							gradientTransform="matrix(1, -0, -0, 1, -0.0000000020457, 0.00000000024173)">
						<stop offset="0" stop-color="#bde1a1"/>
						<stop offset="1" stop-color="#42bc33"/>
					</linearGradient>
					<g mask="url(#mfid47)">
						<g text-rendering="geometricPrecision">
							<g transform="matrix(96, 0, 0, -96, 16.442, 12.186)">
								<g fill="url(#mfid48)">
									<rect x="-0.010417" y="-0.010417" width="0.021333" height="0.022156" stroke="none"/>
								</g>
							</g>
						</g>
					</g>
					<!-- GetDC -->
					<!-- Released DC -->
					<defs>
						<path id="mfid49"
								d="M16.88,14.77 C16.865,14.971 16.84,15.169 16.805,15.365 C16.846,15.191 16.88,15.026 16.88,15.026 L16.88,14.77 Z"/>
					</defs>
					<mask id="mfid50">
						<use xlink:href="#mfid49" fill-rule="evenodd" fill="white" stroke="none"/>
					</mask>
					<mask id="mfid51" fill="white" stroke="none">
						<g>
							<g mask="url(#mfid50)">
								<use xlink:href="#mfid6"/>
							</g>
						</g>
					</mask>
					<linearGradient id="mfid52" gradientUnits="userSpaceOnUse" x1="-0.010417" y1="0.003099" x2="0.011198"
							y2="0.003099" spreadMethod="repeat"
							gradientTransform="matrix(1, -0, -0, 1, 0.00000000005779, -0.0000000016662)">
						<stop offset="0" stop-color="#bde1a1"/>
						<stop offset="1" stop-color="#42bc33"/>
					</linearGradient>
					<g mask="url(#mfid51)">
						<g text-rendering="geometricPrecision">
							<g transform="matrix(96, 0, 0, -96, 16.805, 15.365)">
								<g fill="url(#mfid52)">
									<rect x="-0.010417" y="-0.010417" width="0.021615" height="0.027031" stroke="none"/>
								</g>
							</g>
						</g>
					</g>
					<!-- GetDC -->
					<!-- Released DC -->
					<defs>
						<path id="mfid53" d="M16.88,13.576 L16.811,13.33 C16.842,13.512 16.866,13.695 16.88,13.882 L16.88,13.576 Z"/>
					</defs>
					<mask id="mfid54">
						<use xlink:href="#mfid53" fill-rule="evenodd" fill="white" stroke="none"/>
					</mask>
					<mask id="mfid55" fill="white" stroke="none">
						<g>
							<g mask="url(#mfid54)">
								<use xlink:href="#mfid6"/>
							</g>
						</g>
					</mask>
					<linearGradient id="mfid56" gradientUnits="userSpaceOnUse" x1="-0.010417" y1="0.002875" x2="0.011135"
							y2="0.002875" spreadMethod="repeat"
							gradientTransform="matrix(1, -0, -0, 1, -0.00000000058272, 0.00000000016679)">
						<stop offset="0" stop-color="#bde1a1"/>
						<stop offset="1" stop-color="#42bc33"/>
					</linearGradient>
					<g mask="url(#mfid55)">
						<g text-rendering="geometricPrecision">
							<g transform="matrix(96, 0, 0, -96, 16.811, 13.882)">
								<g fill="url(#mfid56)">
									<rect x="-0.010417" y="-0.010417" width="0.021552" height="0.026583" stroke="none"/>
								</g>
							</g>
						</g>
					</g>
					<!-- GetDC -->
					<!-- Released DC -->
					<defs>
						<path id="mfid57"
								d="M16.88,13.881 C16.865,13.694 16.842,13.511 16.811,13.329 L16.49,12.185 C16.473,12.143 16.46,12.1 16.442,12.058 L16.249,11.688 L16.138,11.776 L16.095,12.006 C16.095,12.006 15.865,12.072 15.777,11.994 C15.777,11.994 15.672,11.508 15.533,11.596 C15.389,11.688 15.378,12.084 15.21,12.123 C15.043,12.162 14.903,12.199 14.967,12.289 C15.031,12.38 14.944,12.687 14.992,12.725 C15.043,12.765 14.722,13.228 14.762,13.676 C14.801,14.125 14.93,14.19 14.89,14.33 C14.852,14.473 14.711,14.869 14.915,14.986 C15.121,15.102 15.21,15.102 15.237,15.229 C15.261,15.359 15.351,15.525 15.48,15.537 C15.611,15.551 15.777,15.346 15.89,15.318 C16.007,15.294 16.083,14.857 16.226,14.882 C16.367,14.907 16.392,14.986 16.392,14.986 L16.581,14.908 L16.546,15.281 C16.546,15.281 16.598,15.717 16.659,15.756 C16.695,15.777 16.757,15.565 16.805,15.363 C16.84,15.168 16.866,14.969 16.88,14.768 L16.88,13.881 Z"/>
					</defs>
					<mask id="mfid58">
						<use xlink:href="#mfid57" fill-rule="evenodd" fill="white" stroke="none"/>
					</mask>
					<mask id="mfid59" fill="white" stroke="none">
						<g>
							<g mask="url(#mfid58)">
								<use xlink:href="#mfid6"/>
							</g>
						</g>
					</mask>
					<linearGradient id="mfid60" gradientUnits="userSpaceOnUse" x1="-0.0098854" y1="0.021939" x2="0.03301"
							y2="0.021939" spreadMethod="repeat">
						<stop offset="0" stop-color="#bde1a1"/>
						<stop offset="1" stop-color="#42bc33"/>
					</linearGradient>
					<g mask="url(#mfid59)">
						<g text-rendering="geometricPrecision">
							<g transform="matrix(96, 0, 0, -96, 14.711, 15.777)">
								<g fill="url(#mfid60)">
									<rect x="-0.0098854" y="-0.010198" width="0.042896" height="0.064273" stroke="none"/>
								</g>
							</g>
						</g>
					</g>
					<!-- GetDC -->
					<!-- Released DC -->
					<defs>
						<path id="mfid61"
								d="M14.58,9.685 C14.359,9.485 13.824,9.134 13.376,8.996 C13.832,9.19 14.256,9.445 14.643,9.744 C14.621,9.724 14.598,9.701 14.58,9.685 Z"/>
					</defs>
					<mask id="mfid62">
						<use xlink:href="#mfid61" fill-rule="evenodd" fill="white" stroke="none"/>
					</mask>
					<mask id="mfid63" fill="white" stroke="none">
						<g>
							<g mask="url(#mfid62)">
								<use xlink:href="#mfid6"/>
							</g>
						</g>
					</mask>
					<linearGradient id="mfid64" gradientUnits="userSpaceOnUse" x1="-0.010417" y1="0.0038958" x2="0.023615"
							y2="0.0038958" spreadMethod="repeat"
							gradientTransform="matrix(-0.00000054733, 0.84114, -1.1889, -0.00000032535, 0.011231, -0.0016548)">
						<stop offset="0" stop-color="#42bc33"/>
						<stop offset="1" stop-color="#bde1a1"/>
					</linearGradient>
					<g mask="url(#mfid63)">
						<g text-rendering="geometricPrecision">
							<g transform="matrix(96, 0, 0, -96, 13.376, 9.744)">
								<g fill="url(#mfid64)">
									<rect x="-0.010417" y="-0.010417" width="0.034031" height="0.028625" stroke="none"/>
								</g>
							</g>
						</g>
					</g>
					<!-- GetDC -->
					<!-- Released DC -->
					<defs>
						<path id="mfid65"
								d="M15.645,10.725 C15.645,10.725 15.635,10.715 15.632,10.712 C15.637,10.717 15.641,10.723 15.645,10.729 L15.645,10.725 Z"/>
					</defs>
					<mask id="mfid66">
						<use xlink:href="#mfid65" fill-rule="evenodd" fill="white" stroke="none"/>
					</mask>
					<mask id="mfid67" fill="white" stroke="none">
						<g>
							<g mask="url(#mfid66)">
								<use xlink:href="#mfid6"/>
							</g>
						</g>
					</mask>
					<defs>
						<path id="mfid68" d="M-0.010417,-0.010417 L0.010552,-0.010417 L0.010552,0.010594 L-0.010417,0.010594 Z"/>
					</defs>
					<radialGradient id="mfid69">
						<stop offset="0" stop-color="#42bc33"/>
						<stop offset="1" stop-color="#bde1a1"/>
					</radialGradient>
					<g mask="url(#mfid67)">
						<g text-rendering="geometricPrecision">
							<g transform="matrix(96, 0, 0, -96, 15.632, 10.729)">
								<g fill="white">
									<mask id="mfid70" x="-0.010417" y="-0.010417" width="0.020969" height="0.02101"
											maskUnits="userSpaceOnUse">
										<rect x="-0.010417" y="-0.010417" width="0.020969" height="0.02101" stroke="none"/>
									</mask>
									<use xlink:href="#mfid68" stroke="none" mask="url(#mfid70)" fill="url(#mfid69)"/>
								</g>
							</g>
						</g>
					</g>
					<!-- GetDC -->
					<!-- Released DC -->
					<defs>
						<path id="mfid71"
								d="M13.142,9.171 C13.285,9.261 13.542,9.415 13.553,9.465 C13.565,9.518 13.502,9.646 13.605,9.696 C13.709,9.749 13.889,9.837 13.889,9.837 C13.889,9.837 14.08,9.723 14.119,9.864 C14.156,10.006 14.182,10.083 14.182,10.083 C14.182,10.083 14.351,10.006 14.273,9.876 C14.195,9.749 13.938,9.504 13.938,9.504 C13.938,9.504 14.324,9.737 14.426,9.837 C14.529,9.942 14.489,10.12 14.426,10.148 C14.362,10.173 14.54,10.529 14.54,10.529 L14.374,10.828 C14.374,10.828 14.811,11.174 14.709,11.238 C14.605,11.301 14.4,11.238 14.412,11.341 C14.426,11.444 14.517,11.586 14.58,11.754 C14.644,11.92 14.76,12.074 14.941,11.996 C15.119,11.92 15.067,11.65 15.067,11.65 C15.067,11.65 14.99,11.353 14.964,11.291 C14.941,11.226 15.04,11.021 15.04,11.021 C15.04,11.021 15.401,11.296 15.491,11.212 C15.58,11.129 15.641,10.739 15.643,10.729 C15.639,10.723 15.635,10.717 15.63,10.712 C15.565,10.647 14.936,10.019 14.641,9.743 C14.254,9.444 13.83,9.189 13.374,8.995 C13.275,8.965 13.176,8.932 13.09,8.927 C13.092,8.927 13,9.082 13.142,9.171 Z"/>
					</defs>
					<mask id="mfid72">
						<use xlink:href="#mfid71" fill-rule="evenodd" fill="white" stroke="none"/>
					</mask>
					<mask id="mfid73" fill="white" stroke="none">
						<g>
							<g mask="url(#mfid72)">
								<use xlink:href="#mfid6"/>
							</g>
						</g>
					</mask>
					<defs>
						<path id="mfid74" d="M-0.0097654,-0.0098 L0.037948,-0.0098 L0.037948,0.043198 L-0.0097654,0.043198 Z"/>
					</defs>
					<radialGradient id="mfid75">
						<stop offset="0" stop-color="#42bc33"/>
						<stop offset="1" stop-color="#bde1a1"/>
					</radialGradient>
					<g mask="url(#mfid73)">
						<g text-rendering="geometricPrecision">
							<g transform="matrix(96, 0, 0, -96, 13, 12.074)">
								<g fill="white">
									<mask id="mfid76" x="-0.0097654" y="-0.0098" width="0.047713" height="0.052998"
											maskUnits="userSpaceOnUse">
										<rect x="-0.0097654" y="-0.0098" width="0.047713" height="0.052998" stroke="none"/>
									</mask>
									<use xlink:href="#mfid74" stroke="none" mask="url(#mfid76)" fill="url(#mfid75)"/>
								</g>
							</g>
						</g>
					</g>
					<!-- GetDC -->
					<!-- Released DC -->
					<defs>
						<path id="mfid77"
								d="M11.213,9.471 C11.221,9.468 11.226,9.463 11.226,9.463 C11.226,9.463 11.217,9.468 11.213,9.471 Z"/>
					</defs>
					<mask id="mfid78">
						<use xlink:href="#mfid77" fill-rule="evenodd" fill="white" stroke="none"/>
					</mask>
					<mask id="mfid79" fill="white" stroke="none">
						<g>
							<g mask="url(#mfid78)">
								<use xlink:href="#mfid6"/>
							</g>
						</g>
					</mask>
					<defs>
						<path id="mfid80" d="M-0.010417,-0.010417 L0.010552,-0.010417 L0.010552,0.0105 L-0.010417,0.0105 Z"/>
					</defs>
					<radialGradient id="mfid81">
						<stop offset="0" stop-color="#42bc33"/>
						<stop offset="1" stop-color="#bde1a1"/>
					</radialGradient>
					<g mask="url(#mfid79)">
						<g text-rendering="geometricPrecision">
							<g transform="matrix(96, 0, 0, -96, 11.213, 9.471)">
								<g fill="white">
									<mask id="mfid82" x="-0.010417" y="-0.010417" width="0.020969" height="0.020917"
											maskUnits="userSpaceOnUse">
										<rect x="-0.010417" y="-0.010417" width="0.020969" height="0.020917" stroke="none"/>
									</mask>
									<use xlink:href="#mfid80" stroke="none" mask="url(#mfid82)" fill="url(#mfid81)"/>
								</g>
							</g>
						</g>
					</g>
					<!-- GetDC -->
					<!-- Released DC -->
					<defs>
						<path id="mfid83"
								d="M10.4,9.132 C10.4,9.132 10.429,9.007 10.599,9.028 C10.769,9.05 11.077,9.08 11.113,9.308 C11.14,9.477 11.189,9.48 11.213,9.471 C11.217,9.468 11.226,9.463 11.226,9.463 C11.226,9.463 11.221,9.468 11.213,9.471 C11.178,9.49 11.033,9.578 11.102,9.735 C11.174,9.912 11.364,10.148 11.364,10.148 C11.364,10.148 11.498,10.139 11.564,10.177 C11.629,10.213 11.695,10.272 11.786,10.213 C11.874,10.155 11.815,9.802 11.815,9.802 C11.815,9.802 12.102,9.669 12.108,9.514 C12.108,9.514 12.33,9.449 12.169,9.234 C12.007,9.022 11.695,8.882 11.695,8.882 L11.467,8.792 L11.695,8.755 C11.695,8.755 12.007,8.704 11.991,8.63 C11.977,8.558 10.712,8.544 10.712,8.544 L9.622,8.727 C9.687,8.841 9.596,8.989 9.61,9.056 C9.789,9.08 10.016,9.103 10.228,9.135 C10.326,9.134 10.4,9.132 10.4,9.132 Z"/>
					</defs>
					<mask id="mfid84">
						<use xlink:href="#mfid83" fill-rule="evenodd" fill="white" stroke="none"/>
					</mask>
					<mask id="mfid85" fill="white" stroke="none">
						<g>
							<g mask="url(#mfid84)">
								<use xlink:href="#mfid6"/>
							</g>
						</g>
					</mask>
					<defs>
						<path id="mfid86" d="M-0.010286,-0.010056 L0.037829,-0.010056 L0.037829,0.028417 L-0.010286,0.028417 Z"/>
					</defs>
					<radialGradient id="mfid87">
						<stop offset="0" stop-color="#42bc33"/>
						<stop offset="1" stop-color="#bde1a1"/>
					</radialGradient>
					<g mask="url(#mfid85)">
						<g text-rendering="geometricPrecision">
							<g transform="matrix(96, 0, 0, -96, 9.596, 10.272)">
								<g fill="white">
									<mask id="mfid88" x="-0.010286" y="-0.010056" width="0.048115" height="0.038472"
											maskUnits="userSpaceOnUse">
										<rect x="-0.010286" y="-0.010056" width="0.048115" height="0.038472" stroke="none"/>
									</mask>
									<use xlink:href="#mfid86" stroke="none" mask="url(#mfid88)" fill="url(#mfid87)"/>
									<defs>
										<path id="mfid89"
												d="M16.902,14.326 C16.902,11.129 14.31,8.537 11.113,8.537 C7.9158,8.537 5.324,11.129 5.324,14.326 C5.324,17.523 7.9158,20.115 11.113,20.115 C14.31,20.115 16.902,17.523 16.902,14.326 Z"/>
									</defs>
								</g>
							</g>
						</g>
					</g>
					<g>
						<g text-rendering="geometricPrecision">
							<g fill="white" stroke-width="0.5" stroke="#006190" stroke-miterlimit="2">
								<use xlink:href="#mfid89" fill="none"/>
							</g>
						</g>
					</g>
				</svg>
				<rect x="0" y="461.46" width="50.3494" height="59.8543" class="st5"/>
			</g>
			<g id="shape3-46">
				<title>Planilha.3</title>
				<rect x="0" y="461.46" width="59.8543" height="59.8543" class="st6"/>
			</g>
			<g id="group4-48" transform="translate(53.8689,-19.1534)">
				<title>Planilha.4</title>
				<g id="shape5-49">
					<title>Planilha.5</title>
					<rect x="0" y="499.767" width="21.5476" height="21.5476" class="st7"/>
				</g>
				<g id="shape6-51" transform="translate(1.1602,-1.15898)">
					<title>Planilha.6</title>
					<rect x="0" y="502.085" width="19.2296" height="19.2296" class="st8"/>
				</g>
				<g id="shape7-59" transform="translate(3.95975,-9.62209)">
					<title>Planilha.7</title>
					<rect x="0" y="519.011" width="13.6256" height="2.30337" class="st9"/>
				</g>
			</g>
			<g id="group8-63" transform="translate(53.8689,-19.1534)">
				<title>Planilha.8</title>
				<g id="shape9-64">
					<title>Planilha.9</title>
					<rect x="0" y="499.767" width="21.5476" height="21.5476" class="st7"/>
				</g>
				<g id="shape10-66" transform="translate(1.1602,-1.15776)">
					<title>Planilha.10</title>
					<rect x="0" y="502.085" width="19.2296" height="19.2296" class="st8"/>
				</g>
				<g id="shape11-69" transform="translate(9.62209,-3.95975)">
					<title>Planilha.11</title>
					<rect x="0" y="507.686" width="2.30337" height="13.6281" class="st10"/>
				</g>
				<g id="shape12-71" transform="translate(3.95975,-9.62209)">
					<title>Planilha.12</title>
					<rect x="0" y="519.011" width="13.6256" height="2.30337" class="st10"/>
				</g>
			</g>
			<g id="shape13-73" transform="translate(-7.48179,7.48179)">
				<title>Planilha.13</title>
			</g>
		</g>
		<g id="group14-77" transform="translate(67.5077,-347.712)">
			<title>Folha de estilos</title>
			<desc>CSS3</desc>
			<g id="shape14-78">
				<rect x="47.0644" y="491.323" width="36.8029" height="16.4037" class="st2"/>
				<text x="57.63" y="503.13" class="st4">CSS3</text>			</g>
			<g id="shape15-81" transform="translate(6.92021,0)">
				<title>Planilha.15</title>
				<rect x="0" y="477.736" width="36.6579" height="43.5781" class="st5"/>
				<svg viewBox="0 0 22.48 26.16" clip="rect(2.80865 2.80867 2.80865 2.80867)" height="49.1954" overflow="hidden"
						preserveAspectRatio="none" width="42.2753" x="-2.80867" y="474.928">
					<defs>
						<path id="mfid90"
								d="M1.5,1.522 L1.5,24.646 L20.998,24.646 L20.998,6.387 C20.998,6.387 17.422,5.746 16.273,5.746 C16.248,4.945 16.265,5.006 16.156,1.521 L1.5,1.521 L1.5,1.522 Z"/>
					</defs>
					<g>
						<g text-rendering="geometricPrecision">
							<g fill="#5a5a5a">
								<use xlink:href="#mfid90" fill-rule="evenodd" stroke="none"/>
								<defs>
									<path id="mfid91"
											d="M2,2.022 L2,24.146 L20.498,24.146 L20.498,6.247 C20.498,6.247 16.228,5.538 16.119,2.022 L2,2.022 Z"/>
								</defs>
							</g>
							<g fill="#ffffff">
								<use xlink:href="#mfid91" fill-rule="evenodd" stroke="none"/>
							</g>
						</g>
					</g>
					<!-- GetDC -->
					<!-- Released DC -->
					<defs>
						<path id="mfid92" d="M16.217,1.5 L15.824,1.5 L15.824,6.872 L20.971,6.872 L20.971,6.331 L16.217,1.5 Z"/>
					</defs>
					<mask id="mfid93">
						<use xlink:href="#mfid92" fill-rule="evenodd" fill="white" stroke="none"/>
					</mask>
					<mask id="mfid94" fill="white" stroke="none">
						<g>
							<g mask="url(#mfid93)">
								<rect width="22.48" height="26.16" id="mfid95"/>
							</g>
						</g>
					</mask>
					<defs>
						<path id="mfid96" d="M-0.010417,-0.010417 L0.064031,-0.010417 L0.064031,0.066375 L-0.010417,0.066375 Z"/>
					</defs>
					<radialGradient id="mfid97">
						<stop offset="0" stop-color="#c6c6c6"/>
						<stop offset="1" stop-color="#606060"/>
					</radialGradient>
					<g mask="url(#mfid94)">
						<g text-rendering="geometricPrecision">
							<g transform="matrix(96, 0, 0, -96, 15.824, 6.872)">
								<g fill="white">
									<mask id="mfid98" x="-0.010417" y="-0.010417" width="0.074448" height="0.076792"
											maskUnits="userSpaceOnUse">
										<rect x="-0.010417" y="-0.010417" width="0.074448" height="0.076792" stroke="none"/>
									</mask>
									<use xlink:href="#mfid96" stroke="none" mask="url(#mfid98)" fill="url(#mfid97)"/>
									<defs>
										<path id="mfid99" d="M16.324,6.372 L20.307,6.372 L16.324,2.372 L16.324,6.372 Z"/>
									</defs>
								</g>
							</g>
						</g>
					</g>
					<g>
						<g text-rendering="geometricPrecision">
							<g fill="#ffffff">
								<use xlink:href="#mfid99" fill-rule="evenodd" stroke="none"/>
							</g>
						</g>
					</g>
					<!-- GetDC -->
					<!-- Released DC -->
					<defs>
						<path id="mfid100" d="M5.422,15.667 L16.565,15.667 L16.565,15.168 L5.422,15.168 L5.422,15.667 Z"/>
					</defs>
					<mask id="mfid101">
						<use xlink:href="#mfid100" fill-rule="evenodd" fill="white" stroke="none"/>
					</mask>
					<mask id="mfid102" fill="white" stroke="none">
						<g>
							<g mask="url(#mfid101)">
								<use xlink:href="#mfid95"/>
							</g>
						</g>
					</mask>
					<linearGradient id="mfid103" gradientUnits="userSpaceOnUse" x1="-0.010417" y1="0.002599" x2="0.12649"
							y2="0.002599" spreadMethod="repeat"
							gradientTransform="matrix(1, -0, -0, 1, -0.0000000061423, 0.00000000011276)">
						<stop offset="0" stop-color="#9aaab7"/>
						<stop offset="1" stop-color="#5084d1"/>
					</linearGradient>
					<g mask="url(#mfid102)">
						<g text-rendering="geometricPrecision">
							<g transform="matrix(96, 0, 0, -96, 5.422, 15.667)">
								<g fill="url(#mfid103)">
									<rect x="-0.010417" y="-0.010417" width="0.13691" height="0.026031" stroke="none"/>
								</g>
							</g>
						</g>
					</g>
					<!-- GetDC -->
					<!-- Released DC -->
					<defs>
						<path id="mfid104" d="M5.422,18.666 L16.565,18.666 L16.565,18.167 L5.422,18.167 L5.422,18.666 Z"/>
					</defs>
					<mask id="mfid105">
						<use xlink:href="#mfid104" fill-rule="evenodd" fill="white" stroke="none"/>
					</mask>
					<mask id="mfid106" fill="white" stroke="none">
						<g>
							<g mask="url(#mfid105)">
								<use xlink:href="#mfid95"/>
							</g>
						</g>
					</mask>
					<linearGradient id="mfid107" gradientUnits="userSpaceOnUse" x1="-0.010417" y1="0.002599" x2="0.12649"
							y2="0.002599" spreadMethod="repeat"
							gradientTransform="matrix(1, -0, -0, 1, -0.0000000061423, 0.00000000011276)">
						<stop offset="0" stop-color="#9aaab7"/>
						<stop offset="1" stop-color="#5084d1"/>
					</linearGradient>
					<g mask="url(#mfid106)">
						<g text-rendering="geometricPrecision">
							<g transform="matrix(96, 0, 0, -96, 5.422, 18.666)">
								<g fill="url(#mfid107)">
									<rect x="-0.010417" y="-0.010417" width="0.13691" height="0.026031" stroke="none"/>
								</g>
							</g>
						</g>
					</g>
					<!-- GetDC -->
					<!-- Released DC -->
					<defs>
						<path id="mfid108" d="M5.422,21.664 L16.565,21.664 L16.565,21.165 L5.422,21.165 L5.422,21.664 Z"/>
					</defs>
					<mask id="mfid109">
						<use xlink:href="#mfid108" fill-rule="evenodd" fill="white" stroke="none"/>
					</mask>
					<mask id="mfid110" fill="white" stroke="none">
						<g>
							<g mask="url(#mfid109)">
								<use xlink:href="#mfid95"/>
							</g>
						</g>
					</mask>
					<linearGradient id="mfid111" gradientUnits="userSpaceOnUse" x1="-0.010417" y1="0.002599" x2="0.12649"
							y2="0.002599" spreadMethod="repeat"
							gradientTransform="matrix(1, -0, -0, 1, -0.0000000061423, 0.00000000011276)">
						<stop offset="0" stop-color="#9aaab7"/>
						<stop offset="1" stop-color="#5084d1"/>
					</linearGradient>
					<g mask="url(#mfid110)">
						<g text-rendering="geometricPrecision">
							<g transform="matrix(96, 0, 0, -96, 5.422, 21.664)">
								<g fill="url(#mfid111)">
									<rect x="-0.010417" y="-0.010417" width="0.13691" height="0.026031" stroke="none"/>
									<defs>
										<path id="mfid112"
												d="M5.457,10.093 L9.645,7.936 L9.645,8.559 L6.115,10.331 L6.115,10.351 L9.644,12.111 L9.644,12.732 L5.456,10.582 L5.456,10.093 L5.457,10.093 Z"/>
									</defs>
								</g>
							</g>
						</g>
					</g>
					<g>
						<g text-rendering="geometricPrecision">
							<g fill="#737a7f">
								<use xlink:href="#mfid112" fill-rule="evenodd" stroke="none"/>
								<defs>
									<path id="mfid113"
											d="M17.145,10.581 L12.957,12.731 L12.957,12.11 L16.486,10.35 L16.486,10.33 L12.957,8.559 L12.957,7.936 L17.145,10.093 L17.145,10.581 Z"/>
								</defs>
								<use xlink:href="#mfid113" fill-rule="evenodd" stroke="none"/>
							</g>
						</g>
					</g>
				</svg>
				<rect x="0" y="477.736" width="36.6579" height="43.5781" class="st5"/>
			</g>
			<g id="shape16-84">
				<title>Planilha.16</title>
				<rect x="0" y="477.736" width="43.5781" height="43.5781" class="st6"/>
			</g>
			<g id="group17-86" transform="translate(39.2203,-13.945)">
				<title>Planilha.17</title>
				<g id="shape18-87">
					<title>Planilha.18</title>
					<rect x="0" y="505.626" width="15.6881" height="15.6881" class="st7"/>
				</g>
				<g id="shape19-89" transform="translate(0.844705,-0.843819)">
					<title>Planilha.19</title>
					<rect x="0" y="507.314" width="14.0005" height="14.0005" class="st8"/>
				</g>
				<g id="shape20-92" transform="translate(2.88298,-7.00556)">
					<title>Planilha.20</title>
					<rect x="0" y="519.637" width="9.92041" height="1.67701" class="st9"/>
				</g>
			</g>
			<g id="group21-95" transform="translate(39.2203,-13.945)">
				<title>Planilha.21</title>
				<g id="shape22-96">
					<title>Planilha.22</title>
					<rect x="0" y="505.626" width="15.6881" height="15.6881" class="st7"/>
				</g>
				<g id="shape23-98" transform="translate(0.844705,-0.842934)">
					<title>Planilha.23</title>
					<rect x="0" y="507.314" width="14.0005" height="14.0005" class="st8"/>
				</g>
				<g id="shape24-101" transform="translate(7.00556,-2.88298)">
					<title>Planilha.24</title>
					<rect x="0" y="511.392" width="1.67701" height="9.92218" class="st10"/>
				</g>
				<g id="shape25-103" transform="translate(2.88298,-7.00556)">
					<title>Planilha.25</title>
					<rect x="0" y="519.637" width="9.92041" height="1.67701" class="st10"/>
				</g>
			</g>
			<g id="shape26-105" transform="translate(-5.44727,5.44727)">
				<title>Planilha.26</title>
			</g>
		</g>
		<g id="group40-108" transform="translate(273.266,-347.712)">
			<title>Script (cliente)</title>
			<desc>JavaScript</desc>
			<g id="shape40-109">
				<rect x="47.0644" y="491.323" width="61.8871" height="16.4037" class="st2"/>
				<text x="57.63" y="503.13" class="st4">JavaScript</text>			</g>
			<g id="shape41-112" transform="translate(6.86792,0)">
				<title>Planilha.41</title>
				<rect x="0" y="477.736" width="36.7102" height="43.5781" class="st5"/>
				<svg viewBox="0 0 23.08 26.84" clip="rect(2.72858 2.72869 2.72858 2.72869)" height="49.0353" overflow="hidden"
						preserveAspectRatio="none" width="42.1676" x="-2.72869" y="475.008">
					<defs>
						<path id="mfid114"
								d="M1.5,1.508 L1.5,25.332 L21.588,25.332 L21.588,6.678 C17.434,6.678 17.904,5.86 16.722,5.86 C16.698,5.079 16.584,1.508 16.584,1.508 L1.5,1.508 Z"/>
					</defs>
					<g>
						<g text-rendering="geometricPrecision">
							<g fill="#5a5a5a">
								<use xlink:href="#mfid114" fill-rule="evenodd" stroke="none"/>
								<defs>
									<path id="mfid115"
											d="M2.015,2.024 L2.015,24.817 L21.074,24.817 L21.074,6.375 C21.074,6.375 17.026,6.375 16.223,6.375 C16.199,5.592 16.086,2.023 16.086,2.023 L2.015,2.023 L2.015,2.024 Z"/>
								</defs>
							</g>
							<g fill="#ffffff">
								<use xlink:href="#mfid115" fill-rule="evenodd" stroke="none"/>
							</g>
						</g>
					</g>
					<!-- GetDC -->
					<!-- Released DC -->
					<defs>
						<path id="mfid116" d="M15.6,1.5 L15.6,7.278 L21.595,7.278 L21.595,6.536 L16.584,1.5 L15.6,1.5 Z"/>
					</defs>
					<mask id="mfid117">
						<use xlink:href="#mfid116" fill-rule="evenodd" fill="white" stroke="none"/>
					</mask>
					<mask id="mfid118" fill="white" stroke="none">
						<g>
							<g mask="url(#mfid117)">
								<rect width="23.08" height="26.84" id="mfid119"/>
							</g>
						</g>
					</mask>
					<defs>
						<path id="mfid120" d="M-0.010417,-0.010417 L0.072865,-0.010417 L0.072865,0.070604 L-0.010417,0.070604 Z"/>
					</defs>
					<radialGradient id="mfid121">
						<stop offset="0" stop-color="#c6c6c6"/>
						<stop offset="1" stop-color="#606060"/>
					</radialGradient>
					<g mask="url(#mfid118)">
						<g text-rendering="geometricPrecision">
							<g transform="matrix(96, 0, 0, -96, 15.6, 7.278)">
								<g fill="white">
									<mask id="mfid122" x="-0.010417" y="-0.010417" width="0.083281" height="0.081021"
											maskUnits="userSpaceOnUse">
										<rect x="-0.010417" y="-0.010417" width="0.083281" height="0.081021" stroke="none"/>
									</mask>
									<use xlink:href="#mfid120" stroke="none" mask="url(#mfid122)" fill="url(#mfid121)"/>
									<defs>
										<path id="mfid123" d="M16.371,6.504 L20.475,6.504 L16.371,2.383 L16.371,6.504 Z"/>
									</defs>
								</g>
							</g>
						</g>
					</g>
					<g>
						<g text-rendering="geometricPrecision">
							<g fill="#ffffff">
								<use xlink:href="#mfid123" fill-rule="evenodd" stroke="none"/>
								<defs>
									<path id="mfid124"
											d="M4.998,11.198 L7.423,9.95 L7.423,10.31 L5.379,11.335 L5.379,11.346 L7.423,12.365 L7.423,12.724 L4.998,11.48 L4.998,11.198 Z"/>
								</defs>
							</g>
							<g fill="#737a7f">
								<use xlink:href="#mfid124" fill-rule="evenodd" stroke="none"/>
								<defs>
									<path id="mfid125"
											d="M18.299,11.48 L15.874,12.724 L15.874,12.365 L17.917,11.346 L17.917,11.335 L15.874,10.31 L15.874,9.95 L18.299,11.198 L18.299,11.48 Z"/>
								</defs>
								<use xlink:href="#mfid125" fill-rule="evenodd" stroke="none"/>
								<defs>
									<path id="mfid126"
											d="M4.998,20.911 L7.423,19.663 L7.423,20.022 L5.379,21.047 L5.379,21.059 L7.423,22.077 L7.423,22.436 L4.998,21.192 L4.998,20.911 Z"/>
								</defs>
								<use xlink:href="#mfid126" fill-rule="evenodd" stroke="none"/>
								<defs>
									<path id="mfid127"
											d="M18.196,21.192 L15.771,22.436 L15.771,22.077 L17.814,21.059 L17.814,21.047 L15.771,20.022 L15.771,19.663 L18.196,20.911 L18.196,21.192 Z"/>
								</defs>
								<use xlink:href="#mfid127" fill-rule="evenodd" stroke="none"/>
							</g>
						</g>
					</g>
					<!-- GetDC -->
					<!-- Released DC -->
					<defs>
						<path id="mfid128" d="M4.944,15.461 L18.097,15.461 L18.097,14.962 L4.944,14.962 L4.944,15.461 Z"/>
					</defs>
					<mask id="mfid129">
						<use xlink:href="#mfid128" fill-rule="evenodd" fill="white" stroke="none"/>
					</mask>
					<mask id="mfid130" fill="white" stroke="none">
						<g>
							<g mask="url(#mfid129)">
								<use xlink:href="#mfid119"/>
							</g>
						</g>
					</mask>
					<linearGradient id="mfid131" gradientUnits="userSpaceOnUse" x1="-0.010417" y1="0.002599" x2="0.14743"
							y2="0.002599" spreadMethod="repeat">
						<stop offset="0" stop-color="#9aaab7"/>
						<stop offset="1" stop-color="#5084d1"/>
					</linearGradient>
					<g mask="url(#mfid130)">
						<g text-rendering="geometricPrecision">
							<g transform="matrix(96, 0, 0, -96, 4.944, 15.461)">
								<g fill="url(#mfid131)">
									<rect x="-0.010417" y="-0.010417" width="0.15784" height="0.026031" stroke="none"/>
								</g>
							</g>
						</g>
					</g>
					<!-- GetDC -->
					<!-- Released DC -->
					<defs>
						<path id="mfid132" d="M4.944,17.512 L18.097,17.512 L18.097,17.012 L4.944,17.012 L4.944,17.512 Z"/>
					</defs>
					<mask id="mfid133">
						<use xlink:href="#mfid132" fill-rule="evenodd" fill="white" stroke="none"/>
					</mask>
					<mask id="mfid134" fill="white" stroke="none">
						<g>
							<g mask="url(#mfid133)">
								<use xlink:href="#mfid119"/>
							</g>
						</g>
					</mask>
					<linearGradient id="mfid135" gradientUnits="userSpaceOnUse" x1="-0.010417" y1="0.0026042" x2="0.14743"
							y2="0.0026042" spreadMethod="repeat"
							gradientTransform="matrix(1, -0, -0, 1, -0.0000000027983, 0.0000000004)">
						<stop offset="0" stop-color="#9aaab7"/>
						<stop offset="1" stop-color="#5084d1"/>
					</linearGradient>
					<g mask="url(#mfid134)">
						<g text-rendering="geometricPrecision">
							<g transform="matrix(96, 0, 0, -96, 4.944, 17.512)">
								<g fill="url(#mfid135)">
									<rect x="-0.010417" y="-0.010417" width="0.15784" height="0.026042" stroke="none"/>
								</g>
							</g>
						</g>
					</g>
					<!-- GetDC -->
					<!-- Released DC -->
					<defs>
						<path id="mfid136" d="M8.171,21.356 L14.871,21.356 L14.871,20.858 L8.171,20.858 L8.171,21.356 Z"/>
					</defs>
					<mask id="mfid137">
						<use xlink:href="#mfid136" fill-rule="evenodd" fill="white" stroke="none"/>
					</mask>
					<mask id="mfid138" fill="white" stroke="none">
						<g>
							<g mask="url(#mfid137)">
								<use xlink:href="#mfid119"/>
							</g>
						</g>
					</mask>
					<linearGradient id="mfid139" gradientUnits="userSpaceOnUse" x1="-0.010417" y1="0.0025938" x2="0.080208"
							y2="0.0025938" spreadMethod="repeat"
							gradientTransform="matrix(1, -0, -0, 1, -0.0000000020744, 0.00000000070063)">
						<stop offset="0" stop-color="#9aaab7"/>
						<stop offset="1" stop-color="#5084d1"/>
					</linearGradient>
					<g mask="url(#mfid138)">
						<g text-rendering="geometricPrecision">
							<g transform="matrix(96, 0, 0, -96, 8.171, 21.356)">
								<g fill="url(#mfid139)">
									<rect x="-0.010417" y="-0.010417" width="0.090625" height="0.026021" stroke="none"/>
								</g>
							</g>
						</g>
					</g>
					<!-- GetDC -->
					<!-- Released DC -->
					<defs>
						<path id="mfid140" d="M8.171,11.514 L14.871,11.514 L14.871,11.014 L8.171,11.014 L8.171,11.514 Z"/>
					</defs>
					<mask id="mfid141">
						<use xlink:href="#mfid140" fill-rule="evenodd" fill="white" stroke="none"/>
					</mask>
					<mask id="mfid142" fill="white" stroke="none">
						<g>
							<g mask="url(#mfid141)">
								<use xlink:href="#mfid119"/>
							</g>
						</g>
					</mask>
					<linearGradient id="mfid143" gradientUnits="userSpaceOnUse" x1="-0.010417" y1="0.0026042" x2="0.080208"
							y2="0.0026042" spreadMethod="repeat"
							gradientTransform="matrix(1, -0, -0, 1, -0.0000000031044, 0.00000000059733)">
						<stop offset="0" stop-color="#9aaab7"/>
						<stop offset="1" stop-color="#5084d1"/>
					</linearGradient>
					<g mask="url(#mfid142)">
						<g text-rendering="geometricPrecision">
							<g transform="matrix(96, 0, 0, -96, 8.171, 11.514)">
								<g fill="url(#mfid143)">
									<rect x="-0.010417" y="-0.010417" width="0.090625" height="0.026042" stroke="none"/>
								</g>
							</g>
						</g>
					</g>
				</svg>
				<rect x="0" y="477.736" width="36.7102" height="43.5781" class="st5"/>
			</g>
			<g id="shape42-115">
				<title>Planilha.42</title>
				<rect x="0" y="477.736" width="43.5781" height="43.5781" class="st6"/>
			</g>
			<g id="group43-117" transform="translate(39.2203,-13.945)">
				<title>Planilha.43</title>
				<g id="shape44-118">
					<title>Planilha.44</title>
					<rect x="0" y="505.626" width="15.6881" height="15.6881" class="st7"/>
				</g>
				<g id="shape45-120" transform="translate(0.844705,-0.843819)">
					<title>Planilha.45</title>
					<rect x="0" y="507.314" width="14.0005" height="14.0005" class="st8"/>
				</g>
				<g id="shape46-123" transform="translate(2.88298,-7.00556)">
					<title>Planilha.46</title>
					<rect x="0" y="519.637" width="9.92041" height="1.67701" class="st9"/>
				</g>
			</g>
			<g id="group47-126" transform="translate(39.2203,-13.945)">
				<title>Planilha.47</title>
				<g id="shape48-127">
					<title>Planilha.48</title>
					<rect x="0" y="505.626" width="15.6881" height="15.6881" class="st7"/>
				</g>
				<g id="shape49-129" transform="translate(0.844705,-0.842934)">
					<title>Planilha.49</title>
					<rect x="0" y="507.314" width="14.0005" height="14.0005" class="st8"/>
				</g>
				<g id="shape50-132" transform="translate(7.00556,-2.88298)">
					<title>Planilha.50</title>
					<rect x="0" y="511.392" width="1.67701" height="9.92218" class="st10"/>
				</g>
				<g id="shape51-134" transform="translate(2.88298,-7.00556)">
					<title>Planilha.51</title>
					<rect x="0" y="519.637" width="9.92041" height="1.67701" class="st10"/>
				</g>
			</g>
			<g id="shape52-136" transform="translate(-5.44727,5.44727)">
				<title>Planilha.52</title>
			</g>
		</g>
		<g id="shape53-139" transform="translate(52.616,629.72) scale(1,-1)">
			<title>Chave lateral</title>
			<desc>Bootstrap</desc>
			<path d="M0 507.14 L0 507.14 A14.173 14.173 -180 0 0 14.17 521.31 L127.56 521.31 A14.173 14.173 0 0 1 141.73 535.49 A14.173
						 14.173 0 0 1 155.91 521.31 L281.09 521.31 A14.173 14.173 -180 0 0 295.26 507.14 L295.26 507.14"
					class="st11"/>
			<text x="542.4" y="145.93" transform="rotate(-90) scale(-1,1)" class="st12">Bootstrap</text>		</g>
		<g id="shape62-143" transform="translate(343.638,-277.297) scale(-1,1)">
			<title>Chave lateral.62</title>
			<desc>AngularJS</desc>
			<path d="M0 507.14 L0 512.81 A8.5038 8.5038 -180 0 0 8.5 521.31 L83.76 521.31 A8.5038 8.5038 0 0 1 92.26 529.82 A8.5038
						 8.5038 0 0 1 100.77 521.31 L178.85 521.31 A8.5038 8.5038 -180 0 0 187.36 512.81 L187.36 507.14"
					class="st11"/>
			<text x="-592.37" y="-88.06" transform="rotate(90) scale(-1,1)" class="st12">AngularJS</text>		</g>
		<g id="group71-147" transform="translate(269.666,-32.4054)">
			<title>Cluster Server</title>
			<g id="group72-148" transform="translate(0,-13.5)">
				<title>Planilha.72</title>
				<g id="shape73-149">
					<title>Planilha.73</title>
					<path d="M0 521.31 L0 476.31 C0 473.39 2.32 471.06 5.25 471.06 L21.75 471.06 C24.68 471.06 27 473.39 27 476.31
								 L27 521.31 L0 521.31 Z" class="st13"/>
				</g>
				<g id="shape74-151" transform="translate(2.25,-2.25)">
					<title>Planilha.74</title>
					<path d="M19.5 475.56 L3 475.56 C1.35 475.56 0 476.91 0 478.56 L0 521.31 L22.5 521.31 L22.5 478.56 C22.5 476.91
								 21.15 475.56 19.5 475.56 ZM17.25 515.31 L5.25 515.31 L5.25 513.06 L17.25 513.06 L17.25 515.31 ZM17.25
								 509.31 L5.25 509.31 L5.25 507.06 L17.25 507.06 L17.25 509.31 ZM17.25 484.56 L5.25 484.56 L5.25 482.31
								 L17.25 482.31 L17.25 484.56 Z" class="st14"/>
				</g>
			</g>
			<g id="group75-153" transform="translate(27,-13.5)">
				<title>Planilha.75</title>
				<g id="shape76-154">
					<title>Planilha.76</title>
					<path d="M0 521.31 L0 476.31 C0 473.39 2.32 471.06 5.25 471.06 L21.75 471.06 C24.68 471.06 27 473.39 27 476.31
								 L27 521.31 L0 521.31 Z" class="st13"/>
				</g>
				<g id="shape77-156" transform="translate(2.25,-2.25)">
					<title>Planilha.77</title>
					<path d="M19.5 475.56 L3 475.56 C1.35 475.56 0 476.91 0 478.56 L0 521.31 L22.5 521.31 L22.5 478.56 C22.5 476.91
								 21.15 475.56 19.5 475.56 ZM17.25 515.31 L5.25 515.31 L5.25 513.06 L17.25 513.06 L17.25 515.31 ZM17.25
								 509.31 L5.25 509.31 L5.25 507.06 L17.25 507.06 L17.25 509.31 ZM17.25 484.56 L5.25 484.56 L5.25 482.31
								 L17.25 482.31 L17.25 484.56 Z" class="st14"/>
				</g>
			</g>
			<g id="group78-158" transform="translate(13.5,3.41061E-13)">
				<title>Planilha.78</title>
				<g id="shape79-159">
					<title>Planilha.79</title>
					<path d="M0 521.31 L0 476.31 C0 473.39 2.32 471.06 5.25 471.06 L21.75 471.06 C24.68 471.06 27 473.39 27 476.31
								 L27 521.31 L0 521.31 Z" class="st13"/>
				</g>
				<g id="shape80-161" transform="translate(2.25,-2.25)">
					<title>Planilha.80</title>
					<path d="M19.5 475.56 L3 475.56 C1.35 475.56 0 476.91 0 478.56 L0 521.31 L22.5 521.31 L22.5 478.56 C22.5 476.91
								 21.15 475.56 19.5 475.56 ZM17.25 515.31 L5.25 515.31 L5.25 513.06 L17.25 513.06 L17.25 515.31 ZM17.25
								 509.31 L5.25 509.31 L5.25 507.06 L17.25 507.06 L17.25 509.31 ZM17.25 484.56 L5.25 484.56 L5.25 482.31
								 L17.25 482.31 L17.25 484.56 Z" class="st14"/>
				</g>
			</g>
		</g>
		<g id="group81-163" transform="translate(277.449,-215.022)">
			<title>Web Services</title>
			<g id="group82-164" transform="translate(0,-4.2554)">
				<title>Planilha.82</title>
				<g id="shape83-165">
					<title>Planilha.83</title>
					<path d="M16.07 521.31 C7.2 521.31 0 514.12 0 505.24 C0 496.37 7.2 489.17 16.07 489.17 C24.94 489.17 32.14 496.37
								 32.14 505.24 C32.14 514.12 24.94 521.31 16.07 521.31 Z" class="st13"/>
				</g>
				<g id="group84-167" transform="translate(1.35811,-1.62973)">
					<title>Planilha.84</title>
					<g id="shape85-168" transform="translate(15.3919,-14.6676)">
						<title>Planilha.85</title>
						<path d="M0 521.31 C2.44 521.27 4.84 520.91 6.97 520.32 C6.88 518.01 6.47 515.84 5.84 513.94 C4.03 514.48
									 2.04 514.84 0 514.89 L0 521.31 Z" class="st15"/>
					</g>
					<g id="shape86-170" transform="translate(15.3919,-22.4993)">
						<title>Planilha.86</title>
						<path d="M0 514.93 L0 521.31 C1.9 521.27 3.71 520.95 5.39 520.45 C4.12 517.38 2.17 515.29 0 514.93 Z"
								class="st15"/>
					</g>
					<g id="shape87-172" transform="translate(8.64662,-22.5446)">
						<title>Planilha.87</title>
						<path d="M5.39 514.98 C3.21 515.34 1.31 517.42 0 520.45 C1.67 520.95 3.49 521.27 5.39 521.31 L5.39 514.98
									 Z" class="st15"/>
					</g>
					<g id="shape88-174" transform="translate(0.633784,-16.1162)">
						<title>Planilha.88</title>
						<path d="M3.12 513.21 C1.72 514.75 0.63 516.65 0 518.69 C1.4 519.78 3.12 520.64 5.07 521.31 C5.21 518.96
									 5.61 516.79 6.25 514.89 C5.12 514.43 4.03 513.84 3.12 513.21 Z" class="st15"/>
					</g>
					<g id="shape89-176" transform="translate(23.0878,-8.28446)">
						<title>Planilha.89</title>
						<path d="M0.68 515.16 C0.68 517.33 0.45 519.41 0 521.31 C2.26 520.54 4.3 519.46 6.07 518.1 C6.25 517.15 6.38
									 516.15 6.38 515.16 C6.38 514.16 6.29 513.21 6.11 512.31 C4.57 513.39 2.76 514.25 0.72 514.93
									 C0.68 514.98 0.68 515.07 0.68 515.16 Z" class="st15"/>
					</g>
					<g id="shape90-178" transform="translate(4.66284,-23.8574)">
						<title>Planilha.90</title>
						<path d="M5.84 516.61 C3.62 517.24 1.67 518.42 0 519.91 C0.81 520.45 1.67 520.91 2.67 521.31 C3.53 519.37
									 4.62 517.74 5.84 516.61 Z" class="st15"/>
					</g>
					<g id="shape91-180" transform="translate(1.46883E-13,-8.19392)">
						<title>Planilha.91</title>
						<path d="M5.66 515.07 C5.66 514.98 5.66 514.89 5.66 514.8 C3.62 514.16 1.81 513.26 0.27 512.22 C0.09 513.12
									 0 514.07 0 515.07 C0 516.15 0.14 517.24 0.36 518.28 C2.13 519.55 4.21 520.59 6.38 521.31 C5.93
									 519.41 5.66 517.29 5.66 515.07 Z" class="st15"/>
					</g>
					<g id="shape92-182" transform="translate(7.06216,-14.6676)">
						<title>Planilha.92</title>
						<path d="M0 520.32 C2.17 520.91 4.53 521.27 6.97 521.31 L6.97 514.84 C4.93 514.8 2.94 514.43 1.13 513.89
									 C0.5 515.79 0.09 517.96 0 520.32 Z" class="st15"/>
					</g>
					<g id="shape93-184" transform="translate(22.5446,-16.1162)">
						<title>Planilha.93</title>
						<path d="M6.25 518.69 C5.61 516.65 4.57 514.8 3.17 513.21 C2.22 513.89 1.13 514.43 0 514.89 C0.63 516.79
									 1.04 518.96 1.18 521.31 C3.12 520.64 4.84 519.78 6.25 518.69 Z" class="st15"/>
					</g>
					<g id="shape94-186" transform="translate(18.8777,-23.8122)">
						<title>Planilha.94</title>
						<path d="M0 516.56 C1.27 517.69 2.35 519.32 3.17 521.31 C4.16 520.91 5.07 520.45 5.89 519.91 C4.26 518.42
									 2.22 517.24 0 516.56 Z" class="st15"/>
					</g>
					<g id="shape95-188" transform="translate(7.01689,-6.88108)">
						<title>Planilha.95</title>
						<path d="M7.02 521.31 L7.02 514.89 C4.57 514.84 2.17 514.48 0 513.94 C0 516.29 0.32 518.55 0.86 520.5 C2.85
									 521 4.89 521.27 7.02 521.31 Z" class="st15"/>
					</g>
					<g id="shape96-190" transform="translate(18.8777,-0.316892)">
						<title>Planilha.96</title>
						<path d="M3.76 514.93 C2.9 517.65 1.58 519.87 0 521.31 C4.48 520 8.06 516.61 9.64 512.22 C7.88 513.35 5.89
									 514.3 3.76 514.93 Z" class="st15"/>
					</g>
					<g id="shape97-192" transform="translate(0.950675,-0.362162)">
						<title>Planilha.97</title>
						<path d="M5.84 515.07 C3.76 514.43 1.77 513.57 0 512.49 C1.63 516.74 5.16 520.05 9.55 521.31 C8.01 519.96
									 6.7 517.74 5.84 515.07 Z" class="st15"/>
					</g>
					<g id="shape98-194" transform="translate(8.375,1.13687E-13)">
						<title>Planilha.98</title>
						<path d="M5.66 521.31 L5.66 515.79 C3.71 515.75 1.81 515.52 0 515.11 C1.27 518.55 3.3 520.91 5.66 521.31 Z"
								class="st15"/>
					</g>
					<g id="shape99-196" transform="translate(15.3919,-6.92635)">
						<title>Planilha.99</title>
						<path d="M7.02 513.94 C4.84 514.52 2.44 514.84 0 514.89 L0 521.31 C2.13 521.27 4.21 520.95 6.16 520.41 C6.7
									 518.46 7.02 516.29 7.02 513.94 Z" class="st15"/>
					</g>
					<g id="shape100-198" transform="translate(15.3919,-1.13687E-13)">
						<title>Planilha.100</title>
						<path d="M0 515.79 L0 521.31 C2.35 520.91 4.39 518.55 5.66 515.07 C3.85 515.47 1.95 515.7 0 515.79 Z"
								class="st15"/>
					</g>
				</g>
			</g>
			<g id="group101-200" transform="translate(18.0176,2.27374E-13)">
				<title>Planilha.101</title>
				<g id="shape102-201">
					<title>Planilha.102</title>
					<path d="M12.63 521.31 C11.91 521.31 11.23 520.86 10.96 520.18 L10.55 519.23 C10.46 519.23 10.32 519.23 10.19
								 519.23 C10.05 519.23 9.91 519.23 9.78 519.23 L9.37 520.18 C9.1 520.86 8.42 521.31 7.7 521.31 C7.47
								 521.31 7.2 521.27 7.02 521.18 L5.3 520.45 C4.84 520.27 4.48 519.91 4.3 519.46 C4.12 519.01 4.12
								 518.51 4.3 518.05 L4.71 517.1 L4.21 516.61 L3.26 516.97 C3.03 517.06 2.81 517.1 2.58 517.1 C1.86
								 517.1 1.18 516.65 0.91 515.97 L0.18 514.25 C-0 513.8 0 513.3 0.18 512.85 C0.36 512.4 0.72 512.03
								 1.18 511.85 L2.13 511.45 L2.13 510.72 L1.18 510.31 C0.72 510.13 0.36 509.77 0.18 509.32 C-0 508.87
								 0 508.37 0.18 507.91 L0.91 506.19 C1.18 505.52 1.86 505.06 2.58 505.06 C2.81 505.06 3.03 505.11
								 3.26 505.2 L4.21 505.61 L4.71 505.11 L4.3 504.16 C4.12 503.7 4.12 503.21 4.3 502.75 C4.48 502.3
								 4.84 501.94 5.3 501.76 L7.02 501.03 C7.24 500.94 7.47 500.9 7.7 500.9 C8.42 500.9 9.1 501.35 9.37
								 502.03 L9.73 502.93 C9.82 502.93 9.96 502.93 10.1 502.93 C10.23 502.93 10.37 502.93 10.5 502.93
								 L10.86 501.98 C11.14 501.3 11.82 500.85 12.54 500.85 C12.77 500.85 12.99 500.9 13.22 500.99 L14.94
								 501.71 C15.39 501.89 15.75 502.26 15.94 502.71 C16.12 503.16 16.12 503.66 15.94 504.11 L15.53 505.06
								 L16.03 505.56 L16.98 505.15 C17.2 505.06 17.43 505.02 17.66 505.02 C18.38 505.02 19.06 505.47 19.33
								 506.15 L20.05 507.87 C20.24 508.32 20.24 508.82 20.05 509.27 C19.87 509.73 19.51 510.09 19.06 510.27
								 L18.11 510.68 L18.11 511.4 L19.06 511.81 C20.01 512.22 20.42 513.26 20.05 514.21 L19.33 515.93 C19.06
								 516.61 18.38 517.06 17.66 517.06 C17.43 517.06 17.16 517.01 16.93 516.92 L15.98 516.52 L15.48 517.01
								 L15.89 517.96 C16.07 518.42 16.07 518.92 15.89 519.37 C15.71 519.82 15.35 520.18 14.89 520.36 L13.17
								 521.09 C13.13 521.27 12.9 521.31 12.63 521.31 Z" class="st13"/>
				</g>
				<g id="shape103-203" transform="translate(1.2223,-1.13176)">
					<title>Planilha.103</title>
					<path d="M17.52 514.25 L16.07 513.66 C15.84 513.57 15.66 513.44 15.66 513.39 C15.66 513.35 15.71 513.08 15.71
								 512.85 L15.71 511.67 C15.71 511.4 15.66 511.17 15.66 511.13 C15.66 511.08 15.84 510.95 16.07 510.86
								 L17.52 510.27 C17.75 510.18 17.88 509.91 17.79 509.63 L17.07 507.91 C16.98 507.69 16.7 507.55 16.43
								 507.64 L14.98 508.23 C14.76 508.32 14.53 508.37 14.49 508.32 C14.44 508.28 14.31 508.1 14.12 507.87
								 L13.26 507.05 C13.08 506.87 12.86 506.74 12.86 506.69 C12.81 506.65 12.86 506.47 12.95 506.19 L13.54
								 504.75 C13.63 504.52 13.54 504.25 13.26 504.11 L11.54 503.39 C11.32 503.3 11.05 503.39 10.91 503.66
								 L10.32 505.11 C10.23 505.33 10.1 505.52 10.05 505.52 C10 505.52 9.73 505.47 9.51 505.42 C9.51 505.42
								 9.28 505.38 8.92 505.38 C8.6 505.47 8.37 505.52 8.37 505.52 C8.1 505.56 7.88 505.56 7.83 505.61
								 C7.79 505.61 7.65 505.42 7.56 505.2 L6.97 503.7 C6.88 503.48 6.61 503.34 6.34 503.43 L4.62 504.16
								 C4.39 504.25 4.26 504.52 4.35 504.79 L4.93 506.24 C5.02 506.47 5.07 506.69 5.02 506.74 C4.98 506.78
								 4.8 506.92 4.62 507.1 L3.76 507.96 C3.58 508.14 3.44 508.37 3.4 508.41 C3.35 508.46 3.17 508.41
								 2.9 508.32 L1.45 507.73 C1.22 507.64 0.95 507.73 0.81 508 L0.09 509.73 C-0 509.95 0.09 510.22 0.36
								 510.36 L1.81 510.95 C2.04 511.04 2.22 511.17 2.22 511.22 C2.22 511.26 2.17 511.54 2.17 511.76 L2.17
								 512.94 C2.17 513.21 2.22 513.44 2.22 513.48 C2.22 513.53 2.04 513.66 1.81 513.75 L0.36 514.34 C0.14
								 514.43 0 514.7 0.09 514.98 L0.81 516.7 C0.91 516.92 1.18 517.06 1.45 516.97 L2.9 516.38 C3.12 516.29
								 3.35 516.24 3.4 516.29 C3.44 516.33 3.58 516.52 3.76 516.74 L4.62 517.56 C4.8 517.74 5.02 517.87
								 5.07 517.92 C5.12 517.96 5.07 518.19 4.98 518.42 L4.39 519.87 C4.3 520.09 4.39 520.36 4.66 520.5
								 L6.38 521.22 C6.61 521.31 6.88 521.22 7.02 520.95 L7.61 519.5 C7.7 519.28 7.83 519.1 7.88 519.1
								 C7.92 519.1 8.19 519.14 8.42 519.19 C8.42 519.19 8.65 519.23 9.01 519.23 C9.37 519.23 9.6 519.19
								 9.6 519.19 C9.87 519.14 10.1 519.14 10.14 519.1 C10.19 519.1 10.32 519.28 10.41 519.5 L11 520.95
								 C11.09 521.18 11.36 521.31 11.63 521.22 L13.35 520.5 C13.58 520.41 13.72 520.14 13.63 519.87 L13.04
								 518.42 C12.95 518.19 12.9 517.96 12.95 517.92 C12.99 517.87 13.17 517.74 13.4 517.56 L14.26 516.7
								 C14.44 516.52 14.58 516.29 14.62 516.24 C14.67 516.2 14.85 516.24 15.12 516.33 L16.57 516.92 C16.8
								 517.01 17.07 516.92 17.2 516.65 L17.93 514.93 C17.84 514.61 17.75 514.34 17.52 514.25 ZM8.96 516.92
								 C6.38 516.92 4.3 514.84 4.3 512.26 C4.3 509.68 6.38 507.6 8.96 507.6 C11.54 507.6 13.63 509.68 13.63
								 512.26 C13.63 514.84 11.54 516.92 8.96 516.92 Z" class="st15"/>
				</g>
			</g>
		</g>
		<g id="shape117-205" transform="translate(303.727,-213.188)">
			<title>Conector dinâmico</title>
			<desc>REST – GET http://api.caixa/v1/empresa/1</desc>
			<path d="M-7.07 521.31 L-7.07 530.11 L-7.11 530.11 L-7.11 632.53" class="st16"/>
			<rect x="-80.4678" y="569.704" width="146.721" height="14.4001" class="st17"/>
			<text x="-80.47" y="580.5" class="st18">REST – <tspan class="st19">GET </tspan>http://api.caixa/v1/empresa/<tspan
						class="st20">1</tspan></text>		</g>
		<g id="group157-212" transform="translate(330.186,-26.475)">
			<title>Management Role</title>
			<g id="group158-213">
				<title>Planilha.158</title>
				<g id="group159-214">
					<title>Planilha.159</title>
					<g id="shape160-215">
						<title>Planilha.160</title>
						<path d="M5.17 521.31 C2.32 521.31 0 518.99 0 516.14 L0 477.06 C0 474.21 2.32 471.89 5.17 471.89 L44.25 471.89
									 C47.1 471.89 49.42 474.21 49.42 477.06 L49.42 516.14 C49.42 518.99 47.1 521.31 44.25 521.31
									 L5.17 521.31 Z" class="st13"/>
					</g>
					<g id="shape161-217" transform="translate(2.25,-2.25)">
						<title>Planilha.161</title>
						<path d="M42 521.31 L2.92 521.31 C1.27 521.31 0 519.96 0 518.39 L0 479.31 C0 477.66 1.35 476.39 2.92 476.39
									 L42 476.39 C43.65 476.39 44.92 477.74 44.92 479.31 L44.92 518.39 C44.92 519.96 43.65 521.31
									 42 521.31 Z" class="st14"/>
					</g>
				</g>
				<g id="shape162-219" transform="translate(17.1,-8.175)">
					<title>Planilha.162</title>
					<path d="M15.15 497.24 C15.15 492.89 11.78 489.29 7.58 489.29 C3.37 489.29 0 492.81 0 497.16 C0 500.24 2.02 503.01
								 4.65 504.29 L4.65 518.01 L7.58 521.31 L10.88 517.86 L8.55 515.39 L11.03 512.76 L11.03 512.61 L8.33
								 509.76 L10.5 507.44 L10.5 506.61 L10.5 504.29 C12.98 503.01 15.15 500.31 15.15 497.24 ZM7.5 497.46
								 C6.23 497.46 5.1 496.41 5.1 495.06 C5.1 493.79 6.15 492.66 7.5 492.66 C8.78 492.66 9.9 493.71 9.9
								 495.06 C9.9 496.41 8.85 497.46 7.5 497.46 Z" class="st13"/>
				</g>
			</g>
		</g>
		<g id="shape163-221" transform="translate(380.836,-31.6759)">
			<title>Planilha.163</title>
			<desc>JWT HTTPS</desc>
			<rect x="0" y="482.291" width="175.323" height="39.0232" class="st5"/>
			<text x="4" y="498.16" class="st21"><tspan class="st22">·</tspan> <tspan class="st23">JWT </tspan><tspan x="4"
						dy="1.215em" class="st22">·</tspan> <tspan class="st23">HTTPS</tspan></text>		</g>
		<g id="shape166-228" transform="translate(56.9031,114.285) rotate(-90)">
			<title>Texto explicat. - linha lateral</title>
			<desc>O Boostrap fará a intervenção nas tags HTML, incluindo efeito...</desc>
			<path d="M-1.21 290.97 L23.2 372.5" class="st11"/>
			<path d="M0 372.5 L46.4 372.5" class="st11"/>
			<rect x="376.496" y="-42.4014" width="139.507" height="38.3994" transform="rotate(90)" class="st24"/>
			<text x="376.5" y="-35.2" transform="rotate(90)" class="st18">O Boostrap fará a intervenção nas tags <tspan x="376.5"
						dy="1.2em" class="st22">HTML, incluindo efeitos com a injeção do </tspan><tspan x="376.5" dy="1.2em"
						class="st22">CSS3 na página e dando ação com o uso de </tspan><tspan x="376.5" dy="1.2em" class="st22">JavaScript de estilo</tspan></text>		</g>
		<g id="shape167-237" transform="translate(45.9898,256.018) rotate(-90)">
			<title>Texto explicat. - linha lateral.167</title>
			<desc>O framework Angular trabalha com o conceito de MVC ou MVVM, q...</desc>
			<path d="M19.09 297.65 L23.2 326.72" class="st11"/>
			<path d="M0 326.72 L46.4 326.72" class="st11"/>
			<rect x="330.716" y="-42.4014" width="186.598" height="38.3994" transform="rotate(90)" class="st17"/>
			<text x="41.34em 42.002em 42.363em 42.668em 43.017em 43.496em 44.294em 44.792em 45.507em 46.034em 46.383em 46.837em 47.198em
						 47.777em 48.302em 48.773em 49.298em 49.528em 50.007em 50.355em 50.716em 51.051em 51.4em 51.879em 52.404em
						 52.883em 53.113em 53.638em 54.117em 54.478em 54.901em 55.428em 56.227em 56.588em 57.116em 57.476em 57.899em
						 58.427em 58.952em 59.375em 59.872em 60.102em 60.437em 60.964em 61.325em 61.85em 62.348em 62.709em 63.564em
						 64.131em 64.665em" y="-35.2" transform="rotate(90)" class="st18">O framework Angular trabalha com o conceito de MVC <tspan
						x="41.34em 41.867em 42.392em 42.878em 43.733em 44.301em 44.868em 45.723em 45.973em 46.459em 46.984em 47.509em
							 48.007em 48.493em 48.991em 49.789em 50.275em 50.624em 51.122em 51.513em 52.038em 52.837em 53.364em 53.85em
							 54.348em 54.739em 55.264em 55.762em 55.991em 56.517em 56.996em 57.482em 58.007em 58.486em 58.972em 59.539em
							 59.769em 60.16em 60.639em 61.166em 61.652em 61.956em 62.481em 62.96em 63.431em 63.66em 64.186em 64.665em"
						dy="1.2em" class="st22">ou MVVM, que em resumo espelha na Visão (página </tspan><tspan x="41.34em 42.055em
							 42.552em 43.077em 43.381em 43.732em 44.259em 44.65em 45.002em 45.527em 46.006em 46.531em 47.059em 47.45em
							 47.801em 48.326em 48.852em 49.349em 49.701em 50.006em 50.533em 50.882em 51.361em 52.16em 52.511em 52.846em
							 53.194em 53.673em 54.008em 54.487em 55.013em 55.54em 55.931em 56.282em 56.808em 57.305em 57.535em 58.062em
							 58.413em 58.947em 59.474em 59.999em 60.334em 60.683em 61.21em 61.44em 61.669em 62.167em 62.515em 62.765em
							 63.116em 63.642em 64.167em 64.665em" dy="1.2em" class="st22">web) os dados que foram tratados pelo Controller, que </tspan><tspan
						x="41.34em 41.865em 42.344em 42.869em 43.348em 43.575em 43.923em 44.421em 44.726em 44.955em 45.453em 45.788em
							 46.285em 47.084em 47.31em 47.838em 48.064em 48.487em 49.014em 49.813em 50.338em 50.865em 51.214em 51.549em
							 52.028em 52.827em 53.324em 53.85em 54.185em 54.712em 54.938em 55.464em 55.991em 56.217em 56.744em 57.27em
							 57.509em 58.007em 58.341em 58.869em" dy="1.2em" class="st22">nada refletem o comportamento do objeto.</tspan></text>		</g>
		<g id="shape168-246" transform="translate(68.6669,288.937) rotate(-90)">
			<title>Texto explicat. - linha lateral.168</title>
			<desc>Todos os dados tratados na camada Web podem e devem ser valid...</desc>
			<path d="M44.92 181.29 L13.6 298.37" class="st11"/>
			<path d="M0 298.37 L27.2 298.37" class="st11"/>
			<rect x="302.37" y="-23.2015" width="214.945" height="19.1997" transform="rotate(90)" class="st17"/>
			<text x="37.796em 38.284em 38.811em 39.336em 39.864em 40.255em 40.669em 41.196em 41.587em 42.002em 42.527em 43.006em
						 43.531em 44.059em 44.45em 44.864em 45.199em 45.548em 46.027em 46.362em 46.841em 47.366em 47.893em 48.284em
						 48.698em 49.224em 49.703em 50.117em 50.54em 51.019em 51.818em 52.297em 52.822em 53.301em 53.715em 54.605em
						 55.102em 55.628em 56.042em 56.567em 57.095em 57.62em 58.118em 58.916em 59.33em 59.828em 60.242em 60.768em
						 61.265em 61.717em 62.214em 63.013em 63.427em 63.818em 64.316em 64.665em" y="-16" transform="rotate(90)"
					class="st18">Todos os dados tratados na camada Web podem e devem ser <tspan x="37.796em 38.248em 38.727em 38.957em
							 39.186em 39.711em 40.19em 40.716em 41.243em 41.634em 41.86em 42.283em 42.81em 43.609em 43.835em 44.314em
							 44.54em 45.066em 45.401em 45.63em 45.86em 46.089em 46.484em 46.963em 47.386em 47.865em 48.392em 48.619em
							 49.144em 49.641em 49.868em 50.666em 51.164em 51.499em 52.026em 52.552em 53.079em 53.47em 53.696em 54.222em
							 54.719em 54.945em 55.424em 55.95em 56.477em 56.706em 57.234em 57.46em 57.985em 58.513em 58.739em 59.317em
							 59.843em 60.313em 60.839em 61.068em 61.547em 61.896em" dy="1.2em" class="st22">validados com a utilização de métodos de apoio do Angular.</tspan></text>		</g>
		<g id="shape169-253" transform="translate(92.3362,330.588) rotate(-90)">
			<title>Texto explicat. - linha lateral.169</title>
			<desc>Os dados são recuperados ou enviados para a camada de serviço...</desc>
			<path d="M42.49 225.22 L18.4 252.02" class="st11"/>
			<path d="M0 252.02 L36.8 252.02" class="st11"/>
			<rect x="256.023" y="-32.8014" width="261.291" height="28.7996" transform="rotate(90)" class="st17"/>
			<text x="32.003em 32.665em 33.056em 33.44em 33.965em 34.444em 34.97em 35.497em 35.888em 36.272em 36.663em 37.142em 37.669em
						 38.053em 38.401em 38.899em 39.322em 39.847em 40.372em 40.87em 41.219em 41.698em 42.223em 42.75em 43.141em
						 43.525em 44.052em 44.578em 44.961em 45.459em 45.984em 46.436em 46.665em 47.144em 47.67em 48.197em 48.588em
						 48.972em 49.497em 49.976em 50.325em 50.804em 51.187em 51.666em 52.05em 52.473em 52.952em 53.751em 54.23em
						 54.755em 55.234em 55.618em 56.143em 56.64em 57.024em 57.415em 57.913em 58.261em 58.713em 58.942em 59.365em
						 59.893em 60.276em 60.755em 61.09em 61.439em 61.918em 62.369em 62.867em 63.258em 63.642em 64.167em 64.665em"
					y="-25.6" transform="rotate(90)" class="st18">Os dados são recuperados ou enviados para a camada de serviço através de <tspan
						x="32.003em 32.426em 32.951em 33.43em 34.229em 34.708em 35.233em 35.712em 36.104em 36.675em 37.298em 37.785em
							 38.273em 38.789em 39.361em 39.664em 40.055em 40.285em 40.81em 41.233em 41.582em 42.109em 42.634em 43.113em
							 43.505em 44.076em 44.574em 45.145em 45.624em 46.015em 46.406em 46.636em 47.161em 47.584em 47.933em 48.46em
							 48.985em 49.464em 49.856em 50.159em 50.408em 50.98em 51.403em 51.93em 52.729em 53.3em 54.099em 54.597em
							 54.932em 55.459em 55.984em 56.512em 56.903em 57.474em 57.897em 58.425em 58.95em 59.285em 59.634em 60.161em
							 60.39em 60.869em 61.395em 61.922em 62.313em 62.885em 63.41em 63.908em 64.137em 64.665em" dy="1.2em"
						class="st22">chamadas HTTP (síncronas e assíncronas), com métodos controlados pelo </tspan><tspan x="32.003em
							 32.582em 33.107em 33.578em 34.103em 34.333em 34.812em 35.16em 35.479em 35.939em 36.188em 36.414em 36.837em
							 37.364em 38.163em 38.389em 38.724em 39.073em 39.552em 39.887em 40.366em 41.165em 41.662em 42.188em 42.522em
							 43.05em 43.276em 43.801em 44.299em 44.525em 45.022em 45.371em 45.72em 46.247em 46.497em 46.723em 46.952em
							 47.48em 47.95em 48.176em 48.702em 49.181em 49.572em 49.798em 50.133em 50.481em 50.96em 51.486em 51.877em
							 52.356em 52.779em 53.306em 53.804em 54.195em 54.421em" dy="1.2em" class="st22">AngularJS, com tratamento de erro, log das transações  </tspan><tspan
						x="54.647em 55.145em 55.371em 55.793em 56.321em 56.846em 57.181em 57.53em 58.057em 58.287em 58.784em 59.01em
							 59.536em 60.033em 60.259em 60.738em 61.161em 61.659em 62.05em 62.441em 62.968em" dy="0em" class="st22">e controle de acesso.</tspan></text>		</g>
		<g id="shape170-262" transform="translate(-332.861,388.15) rotate(-90)">
			<title>Texto explicat. - linha lateral.170</title>
			<desc>A comunicação entre a página web e os serviços ocorrerá sob H...</desc>
			<path d="M-14.74 616.28 L13.6 521.31" class="st11"/>
			<path d="M0 521.31 L27.2 521.31" class="st11"/>
			<rect x="398.375" y="-23.2015" width="118.939" height="19.1997" transform="rotate(90)" class="st24"/>
			<text x="49.797em 50.376em 50.735em 51.158em 51.686em 52.484em 53.01em 53.535em 53.765em 54.188em 54.667em 55.089em 55.568em
						 56.096em 56.456em 56.953em 57.478em 57.813em 58.162em 58.66em 59.019em 59.498em 59.858em 60.383em 60.862em
						 61.333em 61.563em 62.088em 62.567em 62.927em 63.642em 64.139em 64.665em" y="-16" transform="rotate(90)"
					class="st18">A comunicação entre a página web <tspan x="49.797em 50.295em 50.521em 51.048em 51.439em 51.665em
							 52.056em 52.554em 52.903em 53.354em 53.584em 54.007em 54.534em 54.925em 55.151em 55.678em 56.101em 56.629em
							 56.977em 57.326em 57.823em 58.172em 58.651em 58.877em 59.268em 59.796em 60.321em 60.547em 61.17em 61.657em
							 62.145em 62.661em 63.121em" dy="1.2em" class="st22">e os serviços ocorrerá sob HTTPS.</tspan></text>		</g>
		<g id="shape171-269" transform="translate(198.635,445.844) rotate(-90)">
			<title>Texto explicat. - linha lateral.171</title>
			<desc>O REST trabalha com o conceito de recurso, ou seja, digamos q...</desc>
			<path d="M79.8 179.74 L47.2 253.44" class="st11"/>
			<path d="M0 253.44 L94.4 253.44" class="st11"/>
			<rect x="257.44" y="-90.4012" width="259.874" height="86.3995" transform="rotate(90)" class="st24"/>
			<text x="32.18em 32.842em 33.119em 33.662em 34.151em 34.61em 35.097em 35.375em 35.71em 36.058em 36.537em 37.063em 37.542em
						 37.771em 38.296em 38.775em 39.053em 39.475em 40.003em 40.802em 41.079em 41.606em 41.883em 42.306em 42.833em
						 43.359em 43.782em 44.279em 44.509em 44.844em 45.371em 45.648em 46.173em 46.671em 46.948em 47.297em 47.794em
						 48.217em 48.743em 49.091em 49.482em 50.01em 50.259em 50.536em 51.064em 51.589em 51.866em 52.257em 52.755em
						 52.994em 53.473em 53.723em 54em 54.525em 54.755em 55.225em 55.704em 56.503em 57.03em 57.422em 57.699em 58.224em
						 58.75em 59.247em" y="-83.2" transform="rotate(90)" class="st18">O REST trabalha com o conceito de recurso, ou seja, digamos que <tspan
						x="59.524em" dy="0em" class="st22">“</tspan><tspan x="59.943em 60.431em 61.23em 61.755em 62.104em 62.601em
							 62.992em" dy="0em" class="st22">Empresa</tspan><tspan x="63.471em 63.89em" dy="0em" class="st22">” </tspan><tspan
						x="64.167em 64.665em" dy="0em" class="st22">é </tspan><tspan x="32.18em 32.706em 33.504em 33.831em 34.18em
							 34.678em 35.1em 35.626em 35.974em 36.366em 36.893em 37.22em 37.745em 37.975em 38.366em 38.891em 39.419em
							 39.944em 40.173em 40.699em 40.928em 41.158em 41.387em 41.782em 42.261em 42.787em 43.314em 43.641em 44.166em
							 44.664em 44.893em 45.421em 45.748em 46.139em 46.636em 46.985em 47.437em 47.666em 48.089em 48.616em 48.866em
							 49.193em 49.718em 50.216em 50.607em 50.942em 51.421em 51.748em 52.053em 52.58em 52.929em 53.728em 54.207em
							 54.456em 54.783em 55.311em 55.637em 56.18em 56.669em 57.128em 57.615em 57.942em 58.277em 58.626em 59.105em
							 59.63em 60.109em 60.339em 60.864em 61.343em 61.67em 62.093em 62.62em 63.419em 63.746em 64.273em 64.665em"
						dy="1.2em" class="st22">um recurso disponibilizado pelo serviço, desta forma, o REST trabalha com os </tspan><tspan
						x="32.18em 32.632em 33.129em 33.478em 34.003em 34.531em 34.922em 35.148em 35.673em 36.008em 36.343em 36.869em
							 37.095em 37.62em 38.099em 38.448em 38.927em 39.153em 39.544em 40.023em 40.548em 41.046em 41.395em 41.621em
							 42.148em 42.374em 42.899em 43.425em 43.922em 44.148em 44.627em 45.05em 45.578em 46.103em 46.438em 46.936em
							 47.358em 47.856em 48.205em 48.684em 48.91em 49.332em 49.86em 50.659em 50.885em 51.364em 51.889em 52.415em
							 52.912em 53.142em 53.639em 53.865em 54.214em 54.711em 55.134em 55.66em 56.008em 56.399em 56.927em"
						dy="1.2em" class="st22">verbos http para saber o que acontecerá com aquele recurso:  </tspan><tspan x="32.18em
							 32.811em 33.299em 33.787em 34.013em 34.399em 34.896em 35.695em 36.221em 36.569em 37.067em 37.458em 37.937em
							 38.323em" dy="2.4em" class="st22">GET /empresa/ </tspan><tspan x="38.549em" dy="0em" class="st22">-</tspan><tspan
						x="38.855em" dy="0em" class="st22"> </tspan><tspan x="39.082em 39.625em 40.122em 40.457em 40.984em 41.333em
							 41.858em 42.337em 42.563em 42.898em 43.426em 43.951em 44.43em 44.821em 45.047em 45.526em 45.917em 46.144em
							 46.641em 47.44em 47.965em 48.314em 48.811em 49.203em 49.682em" dy="0em" class="st22">Retorna todas as empresas </tspan><tspan
						x="32.18em 32.811em 33.299em 33.787em 34.013em 34.399em 34.896em 35.695em 36.221em 36.569em 37.067em 37.458em
							 37.937em 38.323em 38.83em" dy="1.2em" class="st22">GET /empresa/1 </tspan><tspan x="39.056em" dy="0em"
						class="st22">–</tspan><tspan x="39.554em" dy="0em" class="st22"> </tspan><tspan x="39.78em 40.323em 40.821em
							 41.156em 41.683em 42.032em 42.557em 43.036em 43.262em 43.741em 43.967em 44.465em 45.264em 45.789em 46.138em
							 46.635em 47.026em 47.505em 47.731em 48.154em 48.682em 49.48em 49.707em 50.234em 50.46em 50.712em 51.327em
							 51.553em 52.051em 52.277em" dy="0em" class="st22">Retorna a empresa com o ID = 1 </tspan><tspan x="
							32.18em 32.697em 33.359em 33.818em 34.306em 34.532em 34.918em 35.416em 36.214em 36.74em 37.088em 37.586em
							 37.977em 38.456em 38.842em 39.068em" dy="1.2em" class="st22">POST /empresa/  </tspan><tspan x="39.294em"
						dy="0em" class="st22">-</tspan><tspan x="39.601em" dy="0em" class="st22"> </tspan><tspan x="39.827em 40.36em
							 40.709em 40.938em 41.417em 41.643em 42.168em 42.967em 43.446em 43.672em 44.17em 44.969em 45.494em 45.843em
							 46.34em 46.731em 47.21em 47.437em 47.859em 48.387em 49.186em 49.412em 49.939em 50.33em 50.556em 51.082em
							 51.561em 52.086em 52.613em 53.004em 53.23em 53.579em 54.077em 54.602em 55.081em 55.472em 55.863em 56.342em
							 56.868em 57.395em 57.786em 58.012em 58.538em 59.017em 59.243em 59.666em 60.191em 60.67em 61.469em 61.948em
							 62.473em" dy="0em" class="st22">Cria uma empresa com os dados repassados na chamada </tspan><tspan x="
							32.18em 32.697em 33.338em 33.826em 34.052em 34.438em 34.936em 35.734em 36.26em 36.608em 37.106em 37.497em
							 37.976em 38.362em 38.869em 39.095em" dy="1.2em" class="st22">PUT /empresa/1  </tspan><tspan x="39.321em"
						dy="0em" class="st22">-</tspan><tspan x="39.627em" dy="0em" class="st22"> </tspan><tspan x="39.854em 40.432em
							 40.662em 40.997em 41.494em 41.843em 42.322em 42.548em 43.027em 43.253em 43.75em 44.549em 45.075em 45.423em
							 45.921em 46.312em 46.791em 47.017em 47.44em 47.967em 48.766em 48.992em 49.519em 49.911em 50.137em 50.662em
							 51.141em 51.666em 52.194em 52.585em 52.811em 53.16em 53.657em 54.183em 54.662em 55.053em 55.444em 55.923em
							 56.448em 56.976em 57.367em 57.593em 58.118em 58.597em 58.823em 59.246em 59.771em 60.25em 61.049em 61.528em
							 62.054em" dy="0em" class="st22">Altera a empresa com os dados repassados na chamada </tspan><tspan x="
							32.18em 32.795em 33.284em 33.704em 34.192em 34.68em 35.168em 35.394em 35.78em 36.278em 37.077em 37.602em
							 37.951em 38.448em 38.839em 39.318em 39.705em 40.211em" dy="1.2em" class="st22">DELETE /empresa/1 </tspan><tspan
						x="40.438em" dy="0em" class="st22">–</tspan><tspan x="40.936em" dy="0em" class="st22"> </tspan><tspan x="
							41.162em 41.65em 42.083em 42.506em 42.735em 43.261em 43.49em 43.716em 44.195em 44.421em 44.919em 45.718em
							 46.243em 46.592em 47.089em 47.48em 47.959em 48.186em 48.608em 49.136em 49.934em 50.161em 50.688em 50.914em
							 51.166em 51.781em 52.007em 52.505em 52.731em" dy="0em" class="st22">Exclui a empresa com o ID = 1</tspan></text>		</g>
	</g>
</svg>
