<?xml version="1.0" encoding="UTF-8" standalone="no"?>
<!DOCTYPE svg PUBLIC "-//W3C//DTD SVG 1.1//EN" "http://www.w3.org/Graphics/SVG/1.1/DTD/svg11.dtd">
<!-- Gerado pelo Microsoft Visio, SVG Export logica.svg Page-1 -->
<svg xmlns="http://www.w3.org/2000/svg" xmlns:xlink="http://www.w3.org/1999/xlink" xmlns:ev="http://www.w3.org/2001/xml-events"
		width="8.61658in" height="6.73556in" viewBox="0 0 620.394 484.961" xml:space="preserve" color-interpolation-filters="sRGB"
		class="st29">
	<style type="text/css">
	<![CDATA[
		.st1 {fill:#ffffff;stroke:#000000;stroke-linecap:round;stroke-linejoin:round;stroke-width:0.75;visibility:hidden}
		.st2 {stroke:#000000;stroke-linecap:round;stroke-linejoin:round;stroke-width:2.05}
		.st3 {fill:#ffffff;stroke:#000000;stroke-linecap:round;stroke-linejoin:round;stroke-width:0.75}
		.st4 {fill:#000000;font-family:Calibri;font-size:1.00001em}
		.st5 {fill:#ffffff;stroke:none;stroke-linecap:butt;stroke-width:0.75}
		.st6 {fill:#515050;stroke:none;stroke-linecap:butt;stroke-width:0.75}
		.st7 {fill:#505050;stroke:none;stroke-linecap:butt;stroke-width:0.75}
		.st8 {fill:#515150;stroke:none;stroke-linecap:butt;stroke-width:0.75}
		.st9 {fill:none;stroke:none;stroke-linecap:round;stroke-linejoin:round;stroke-width:0.75}
		.st10 {font-size:1em}
		.st11 {stroke:#000000;stroke-linecap:round;stroke-linejoin:round;stroke-width:0.75}
		.st12 {fill:#ffffff;stroke:none;stroke-linecap:butt;stroke-width:7.2}
		.st13 {fill:#000000;font-family:Calibri;font-size:0.833336em;font-style:italic;font-weight:bold}
		.st14 {font-size:1em;font-style:normal;font-weight:normal}
		.st15 {stroke:#000000;stroke-linecap:round;stroke-linejoin:round;stroke-width:0.24}
		.st16 {fill:#000000;font-family:Calibri;font-size:0.666664em}
		.st17 {fill:#000000;font-family:Calibri;font-size:1.33333em}
		.st18 {marker-end:url(#mrkr13-185);marker-start:url(#mrkr13-183);stroke:#000000;stroke-linecap:round;stroke-linejoin:round;stroke-width:0.75}
		.st19 {fill:#000000;fill-opacity:1;stroke:#000000;stroke-opacity:1;stroke-width:0.22935779816514}
		.st20 {fill:#000000;font-family:Calibri;font-size:0.666664em;font-style:italic;font-weight:bold}
		.st21 {fill:#000000;font-family:Calibri;font-size:1.00001em;font-weight:bold}
		.st22 {font-size:0.666659em;font-weight:normal}
		.st23 {font-size:0.666659em;font-style:italic}
		.st24 {font-size:1em;font-weight:normal}
		.st25 {fill:#000000;font-family:Calibri;font-size:1.00001em;font-style:italic;font-weight:bold}
		.st26 {fill:#4c4a4c;stroke:none;stroke-linecap:butt;stroke-width:0.75}
		.st27 {fill:#ffffff}
		.st28 {fill:#000000;font-family:Arial;font-size:0.833336em;font-weight:bold}
		.st29 {fill:none;fill-rule:evenodd;font-size:12px;overflow:visible;stroke-linecap:square;stroke-miterlimit:3}
	]]>
	</style>

	<defs id="Markers">
		<g id="lend13">
			<path d="M 3 1 L 0 0 L 3 -1 L 3 1 " style="stroke:none"/>
		</g>
		<marker id="mrkr13-183" class="st19" refX="12.6" orient="auto" markerUnits="strokeWidth" overflow="visible">
			<use xlink:href="#lend13" transform="scale(4.36) "/>
		</marker>
		<marker id="mrkr13-185" class="st19" refX="-13.08" orient="auto" markerUnits="strokeWidth" overflow="visible">
			<use xlink:href="#lend13" transform="scale(-4.36,-4.36) "/>
		</marker>
	</defs>
	<g>
		<title>Página-1</title>
		<g id="group492-1" transform="translate(378.375,-273.98)">
			<title>Fio</title>
			<g id="shape492-2">
				<rect x="0" y="367.525" width="224.019" height="117.435" class="st1"/>
			</g>
			<g id="group493-4">
				<title>Planilha.493</title>
				<g id="shape494-5">
					<title>Planilha.494</title>
					<path d="M8.5 476.46 L198.51 476.46 A17.0079 17.0079 -180 0 0 215.51 459.45 L215.51 395.74 A17.0079 17.0079 -180
								 0 0 198.51 378.73 L95.01 378.73" class="st2"/>
				</g>
				<g id="shape495-8">
					<title>Planilha.495</title>
					<ellipse cx="8.50394" cy="476.457" rx="8.50394" ry="8.50394" class="st3"/>
				</g>
				<g id="shape496-10" transform="translate(78.006,-97.7294)">
					<title>Planilha.496</title>
					<ellipse cx="8.50394" cy="476.457" rx="8.50394" ry="8.50394" class="st3"/>
				</g>
				<g id="shape493-12">
					<rect x="0" y="367.525" width="224.019" height="117.435" class="st1"/>
				</g>
			</g>
			<g id="shape497-14" transform="translate(0,-95.0315)">
				<title>Planilha.497</title>
				<desc>Apresentação</desc>
				<rect x="0" y="462.557" width="78.006" height="22.4037" class="st1"/>
				<text x="5.36" y="477.36" class="st4">Apresentação</text>			</g>
		</g>
		<g id="group502-17" transform="translate(313.137,-75.5549)">
			<title>Fio.502</title>
			<g id="shape502-18">
				<rect x="0" y="336.142" width="224.019" height="148.819" class="st1"/>
			</g>
			<g id="group503-20">
				<title>Planilha.503</title>
				<g id="shape504-21">
					<title>Planilha.504</title>
					<path d="M8.5 476.46 L198.51 476.46 A17.0079 17.0079 -180 0 0 215.51 459.45 L215.51 364.35 A17.0079 17.0079 -180
								 0 0 198.51 347.34 L77.17 347.34" class="st2"/>
				</g>
				<g id="shape505-24">
					<title>Planilha.505</title>
					<ellipse cx="8.50394" cy="476.457" rx="8.50394" ry="8.50394" class="st3"/>
				</g>
				<g id="shape506-26" transform="translate(60.1582,-129.113)">
					<title>Planilha.506</title>
					<ellipse cx="8.50394" cy="476.457" rx="8.50394" ry="8.50394" class="st3"/>
				</g>
				<g id="shape503-28">
					<rect x="0" y="336.142" width="224.019" height="148.819" class="st1"/>
				</g>
			</g>
			<g id="shape507-30" transform="translate(0,-126.415)">
				<title>Planilha.507</title>
				<desc>Aplicação</desc>
				<rect x="0" y="462.557" width="60.1582" height="22.4037" class="st1"/>
				<text x="6.71" y="477.36" class="st4">Aplicação </text>			</g>
		</g>
		<g id="group409-33" transform="translate(389.795,-114.018)">
			<title>Application Server</title>
			<g id="group410-34" transform="translate(-2.43805E-13,-3.75)">
				<title>Planilha.410</title>
				<g id="shape411-35">
					<title>Planilha.411</title>
					<path d="M0 484.96 L0 433.21 C0 430.29 2.33 427.96 5.25 427.96 L26.25 427.96 C29.18 427.96 31.5 430.29 31.5 433.21
								 L31.5 484.96 L0 484.96 Z" class="st5"/>
				</g>
				<g id="shape412-37" transform="translate(2.25,-2.25)">
					<title>Planilha.412</title>
					<path d="M24 432.46 L3 432.46 C1.35 432.46 0 433.81 0 435.46 L0 484.96 L27 484.96 L27 435.46 C27 433.81 25.65
								 432.46 24 432.46 ZM21.75 478.96 L5.25 478.96 L5.25 476.71 L21.75 476.71 L21.75 478.96 ZM21.75 472.21
								 L5.25 472.21 L5.25 469.96 L21.75 469.96 L21.75 472.21 ZM21.75 441.46 L5.25 441.46 L5.25 439.21 L21.75
								 439.21 L21.75 441.46 Z" class="st6"/>
				</g>
			</g>
			<g id="group413-39" transform="translate(17.25,-2.84217E-13)">
				<title>Planilha.413</title>
				<g id="shape414-40">
					<title>Planilha.414</title>
					<path d="M3.75 484.96 C1.65 484.96 0 483.31 0 481.21 L0 460.96 C0 458.86 1.65 457.21 3.75 457.21 L30 457.21 C32.1
								 457.21 33.75 458.86 33.75 460.96 L33.75 481.21 C33.75 483.31 32.1 484.96 30 484.96 L3.75 484.96
								 Z" class="st5"/>
				</g>
				<g id="shape415-42" transform="translate(2.25,-2.25)">
					<title>Planilha.415</title>
					<path d="M27.75 461.71 L1.5 461.71 C0.6 461.71 0 462.31 0 463.21 L0 483.46 C-0 484.36 0.6 484.96 1.5 484.96 L27.75
								 484.96 C28.65 484.96 29.25 484.36 29.25 483.46 L29.25 463.21 C29.25 462.31 28.65 461.71 27.75 461.71
								 ZM27.75 483.46 L1.5 483.46 L1.5 466.21 L27.75 466.21 L27.75 483.46 Z" class="st6"/>
				</g>
				<g id="shape416-44" transform="translate(28.5,-22.5)">
					<title>Planilha.416</title>
					<rect x="0" y="483.461" width="1.5" height="1.5" class="st5"/>
				</g>
				<g id="shape417-46" transform="translate(25.5,-22.5)">
					<title>Planilha.417</title>
					<rect x="0" y="483.461" width="1.5" height="1.5" class="st5"/>
				</g>
				<g id="shape418-48" transform="translate(22.5,-22.5)">
					<title>Planilha.418</title>
					<rect x="0" y="483.461" width="1.5" height="1.5" class="st5"/>
				</g>
			</g>
		</g>
		<g id="group428-50" transform="translate(416.318,-160.441)">
			<title>Connector - small</title>
			<g id="shape429-51" transform="translate(21.75,-26.25)">
				<title>Planilha.429</title>
			</g>
			<g id="group430-52">
				<title>Planilha.430</title>
				<g id="shape431-53">
					<title>Planilha.431</title>
					<path d="M21.75 484.96 C17.92 484.96 14.4 483.46 11.7 480.76 C10.12 479.19 8.93 477.31 8.25 475.21 L4.5 475.21
								 C2.02 475.21 0 473.19 0 470.71 C0 468.24 2.02 466.21 4.5 466.21 L8.25 466.21 C8.92 464.11 10.12
								 462.24 11.7 460.66 C14.4 457.96 17.92 456.46 21.75 456.46 C25.57 456.46 29.1 457.96 31.8 460.66
								 L33.37 462.24 L29.4 466.21 L33 466.21 C35.47 466.21 37.5 468.24 37.5 470.71 C37.5 473.19 35.47 475.21
								 33 475.21 L29.4 475.21 L33.37 479.19 L31.8 480.76 C29.1 483.46 25.57 484.96 21.75 484.96 Z"
							class="st5"/>
				</g>
				<g id="shape432-55" transform="translate(2.25,-2.25)">
					<title>Planilha.432</title>
					<path d="M19.5 481.21 C17.25 481.21 15.15 480.31 13.65 478.81 C12.15 477.31 11.25 475.21 11.25 472.96 C11.25
								 470.71 12.15 468.61 13.65 467.11 C15.15 465.61 17.25 464.71 19.5 464.71 C21.75 464.71 23.85 465.61
								 25.35 467.11 L27.97 464.49 C25.8 462.31 22.8 460.96 19.5 460.96 C16.2 460.96 13.2 462.31 11.02 464.49
								 C9.38 466.14 8.18 468.31 7.73 470.71 L2.63 470.71 L2.25 470.71 C0.97 470.71 0 471.69 0 472.96 C-0
								 474.24 0.97 475.21 2.25 475.21 L2.63 475.21 L7.73 475.21 C8.18 477.61 9.38 479.79 11.02 481.44 C13.2
								 483.61 16.2 484.96 19.5 484.96 C22.8 484.96 25.8 483.61 27.97 481.44 L25.35 478.81 C23.85 480.31
								 21.75 481.21 19.5 481.21 Z" class="st7"/>
				</g>
				<g id="shape433-57" transform="translate(17.7,-10.2)">
					<title>Planilha.433</title>
					<path d="M15.3 478.66 L7.42 478.66 C6.67 477.61 5.47 476.86 4.05 476.86 C1.8 476.86 0 478.66 0 480.91 C0 483.16
								 1.8 484.96 4.05 484.96 C5.47 484.96 6.67 484.21 7.42 483.16 L15.3 483.16 C16.57 483.16 17.55 482.19
								 17.55 480.91 C17.55 479.64 16.57 478.66 15.3 478.66 Z" class="st7"/>
				</g>
			</g>
		</g>
		<g id="group462-59" transform="translate(403.605,-303.673)">
			<title>View Form</title>
			<g id="group463-60">
				<title>Planilha.463</title>
				<g id="group464-61" transform="translate(-3.07754E-13,-9)">
					<title>Planilha.464</title>
					<g id="group465-62">
						<title>Planilha.465</title>
						<g id="shape466-63">
							<title>Planilha.466</title>
							<path d="M5.25 484.96 C2.32 484.96 0 482.64 0 479.71 L0 445.21 C0 442.29 2.32 439.96 5.25 439.96 L51
										 439.96 C53.93 439.96 56.25 442.29 56.25 445.21 L56.25 479.71 C56.25 482.64 53.93 484.96
										 51 484.96 L5.25 484.96 Z" class="st5"/>
						</g>
						<g id="shape467-65" transform="translate(2.25,-2.25)">
							<title>Planilha.467</title>
							<path d="M48.75 444.46 L3 444.46 C1.35 444.46 0 445.81 0 447.46 L0 481.96 C0 483.61 1.35 484.96 3 484.96
										 L48.75 484.96 C50.4 484.96 51.75 483.61 51.75 481.96 L51.75 447.46 C51.75 445.81 50.4 444.46
										 48.75 444.46 ZM42.75 446.71 L45 446.71 L45 448.96 L42.75 448.96 L42.75 446.71 ZM38.25 446.71
										 L40.5 446.71 L40.5 448.96 L38.25 448.96 L38.25 446.71 ZM49.5 481.96 C49.5 482.41 49.2 482.71
										 48.75 482.71 L3 482.71 C2.55 482.71 2.25 482.41 2.25 481.96 L2.25 451.96 L49.5 451.96 L49.5
										 481.96 ZM49.5 448.96 L47.25 448.96 L47.25 446.71 L49.5 446.71 L49.5 448.96 Z" class="st8"/>
						</g>
					</g>
					<g id="shape468-67" transform="translate(8.25,-9)">
						<title>Planilha.468</title>
						<path d="M38.25 469.21 L38.25 483.46 L1.5 483.46 L1.5 469.21 L38.25 469.21 ZM39.75 467.71 L0 467.71 L0 484.96
									 L39.75 484.96 L39.75 467.71 Z" class="st8"/>
					</g>
					<g id="shape469-69" transform="translate(8.25,-29.25)">
						<title>Planilha.469</title>
						<rect x="0" y="483.461" width="14.25" height="1.5" class="st8"/>
					</g>
				</g>
				<g id="group470-71" transform="translate(29.325,0)">
					<title>Planilha.470</title>
					<g id="shape471-72">
						<title>Planilha.471</title>
						<path d="M16.8 484.96 C7.58 484.96 0 477.46 0 468.16 C0 458.86 7.5 451.36 16.8 451.36 C26.03 451.36 33.6
									 458.86 33.6 468.16 C33.6 477.46 26.03 484.96 16.8 484.96 Z" class="st5"/>
					</g>
					<g id="shape472-74" transform="translate(3.825,-3.825)">
						<title>Planilha.472</title>
						<ellipse cx="12.975" cy="471.986" rx="12.975" ry="12.975" class="st5"/>
					</g>
					<g id="group473-76" transform="translate(3.675,-10.425)">
						<title>Planilha.473</title>
						<g id="shape474-77" transform="translate(0,-6.075)">
							<title>Planilha.474</title>
							<path d="M15.75 471.46 L8.25 471.46 L0 484.96 L15.75 484.96 L15.75 471.46 ZM14.25 483.46 L2.1 483.46
										 L6 472.96 L14.25 472.96 L14.25 483.46 Z" class="st8"/>
						</g>
						<g id="shape475-79" transform="translate(2.25,5.68434E-14)">
							<title>Planilha.475</title>
							<path d="M17.25 469.21 L17.25 481.96 C17.25 482.41 16.95 482.71 16.5 482.71 L0 482.71 L1.5 484.96 L16.5
										 484.96 C18.15 484.96 19.5 483.61 19.5 481.96 L19.5 470.71 L17.25 469.21 Z" class="st8"/>
						</g>
					</g>
					<g id="shape476-81" transform="translate(2.25,-2.25)">
						<title>Planilha.476</title>
						<path d="M14.55 455.94 C6.53 455.94 0 462.46 0 470.49 C0 478.51 6.53 484.96 14.55 484.96 C22.58 484.96 29.1
									 478.44 29.1 470.41 C29.1 462.39 22.58 455.94 14.55 455.94 ZM14.55 481.81 C8.25 481.81 3.15 476.71
									 3.15 470.41 C3.15 464.11 8.25 459.01 14.55 459.01 C20.85 459.01 25.95 464.11 25.95 470.41 C25.95
									 476.71 20.85 481.81 14.55 481.81 Z" class="st8"/>
					</g>
					<g id="shape477-83" transform="translate(5.175,-5.175)">
						<title>Planilha.477</title>
						<path d="M11.63 463.21 C17.18 463.21 21.75 467.79 21.75 473.34 C21.75 478.89 17.18 483.46 11.63 483.46 C6.08
									 483.46 1.5 478.89 1.5 473.34 C1.5 467.79 6.08 463.21 11.63 463.21 ZM11.63 461.71 C5.25 461.71
									 0 466.96 0 473.34 C0 479.71 5.25 484.96 11.63 484.96 C18 484.96 23.25 479.79 23.25 473.34 C23.25
									 466.89 18 461.71 11.63 461.71 Z" class="st5"/>
					</g>
				</g>
			</g>
		</g>
		<g id="shape478-85" transform="translate(454.951,-116.294)">
			<title>Planilha.478</title>
			<desc>Aplicação RESTful</desc>
			<rect x="0" y="440.023" width="70.8661" height="44.9376" class="st9"/>
			<text x="12.07" y="458.89" class="st4">Aplicação <tspan x="17.2" dy="1.2em" class="st10">RESTful</tspan></text>		</g>
		<g id="shape479-89" transform="translate(427.977,-301.986)">
			<title>Conector dinâmico.479</title>
			<desc>HTTPS JSON JWT</desc>
			<path d="M7.08 484.96 L7.09 590.32" class="st11"/>
			<rect x="-6.00668" y="519.639" width="26.1867" height="36" class="st12"/>
			<text x="-6.01" y="528.64" class="st13">HTTPS <tspan x="-3.34" dy="1.2em" class="st14">JSON</tspan><tspan x="-1.39"
						dy="1.2em" class="st14">JWT</tspan></text>		</g>
		<g id="shape480-96" transform="translate(91.8397,182.289) rotate(-90)">
			<title>Texto explicat. - linha lateral</title>
			<desc>HTML5 CSS3 JavaScript Framework Bootstrap Framework Angular</desc>
			<path d="M28 381.44 L28 399.92" class="st15"/>
			<path d="M0 399.92 L56 399.92" class="st15"/>
			<rect x="403.921" y="-52.0014" width="70.9409" height="47.9995" transform="rotate(90)" class="st12"/>
			<text x="403.92" y="-44.8" transform="rotate(90)" class="st16">HTML5 <tspan x="403.92" dy="1.2em" class="st10">CSS3 </tspan><tspan
						x="403.92" dy="1.2em" class="st10">JavaScript </tspan><tspan x="403.92" dy="1.2em" class="st10">Framework Bootstrap </tspan><tspan
						x="403.92" dy="1.2em" class="st10">Framework Angular</tspan></text>		</g>
		<g id="group514-106" transform="translate(124.153,-318.282)">
			<title>Content Type</title>
			<g id="group515-107">
				<title>Planilha.515</title>
				<g id="group516-108">
					<title>Planilha.516</title>
					<g id="shape517-109">
						<title>Planilha.517</title>
						<path d="M5.25 484.96 C2.32 484.96 0 482.64 0 479.71 L0 445.21 C0 442.29 2.32 439.96 5.25 439.96 L52.5 439.96
									 C55.42 439.96 57.75 442.29 57.75 445.21 L57.75 479.71 C57.75 482.64 55.42 484.96 52.5 484.96
									 L5.25 484.96 Z" class="st5"/>
					</g>
					<g id="shape518-111" transform="translate(2.25,-2.25)">
						<title>Planilha.518</title>
						<path d="M50.25 444.46 L3 444.46 C1.35 444.46 0 445.81 0 447.46 L0 481.96 C0 483.61 1.35 484.96 3 484.96
									 L50.25 484.96 C51.9 484.96 53.25 483.61 53.25 481.96 L53.25 447.46 C53.25 445.81 51.9 444.46
									 50.25 444.46 ZM44.25 446.71 L46.5 446.71 L46.5 448.96 L44.25 448.96 L44.25 446.71 ZM39.75 446.71
									 L42 446.71 L42 448.96 L39.75 448.96 L39.75 446.71 ZM51 481.96 C51 482.41 50.7 482.71 50.25 482.71
									 L3 482.71 C2.55 482.71 2.25 482.41 2.25 481.96 L2.25 451.96 L51 451.96 L51 481.96 ZM51 448.96
									 L48.75 448.96 L48.75 446.71 L51 446.71 L51 448.96 Z" class="st8"/>
					</g>
				</g>
				<g id="shape519-113" transform="translate(7.5,-8.25)">
					<title>Planilha.519</title>
					<path d="M7.5 463.21 L7.5 483.46 L1.5 483.46 L1.5 463.21 L7.5 463.21 ZM9 461.71 L0 461.71 L0 484.96 L9 484.96
								 L9 461.71 Z" class="st6"/>
				</g>
				<g id="shape520-115" transform="translate(18.75,-8.25)">
					<title>Planilha.520</title>
					<path d="M7.5 463.21 L7.5 483.46 L1.5 483.46 L1.5 463.21 L7.5 463.21 ZM9 461.71 L0 461.71 L0 484.96 L9 484.96
								 L9 461.71 Z" class="st6"/>
				</g>
				<g id="shape521-117" transform="translate(30,-8.25)">
					<title>Planilha.521</title>
					<path d="M7.5 463.21 L7.5 483.46 L1.5 483.46 L1.5 463.21 L7.5 463.21 ZM9 461.71 L0 461.71 L0 484.96 L9 484.96
								 L9 461.71 Z" class="st6"/>
				</g>
				<g id="shape522-119" transform="translate(41.25,-8.25)">
					<title>Planilha.522</title>
					<path d="M7.5 463.21 L7.5 483.46 L1.5 483.46 L1.5 463.21 L7.5 463.21 ZM9 461.71 L0 461.71 L0 484.96 L9 484.96
								 L9 461.71 Z" class="st6"/>
				</g>
			</g>
		</g>
		<g id="group523-121" transform="translate(45.1427,-318.282)">
			<title>Application, Generic</title>
			<g id="group524-122">
				<title>Planilha.524</title>
				<g id="shape525-123">
					<title>Planilha.525</title>
					<path d="M5.25 484.96 C2.32 484.96 0 482.64 0 479.71 L0 445.21 C0 442.29 2.32 439.96 5.25 439.96 L52.5 439.96
								 C55.42 439.96 57.75 442.29 57.75 445.21 L57.75 479.71 C57.75 482.64 55.42 484.96 52.5 484.96 L5.25
								 484.96 Z" class="st5"/>
				</g>
				<g id="shape526-125" transform="translate(2.25,-2.25)">
					<title>Planilha.526</title>
					<path d="M50.25 444.46 L3 444.46 C1.35 444.46 0 445.81 0 447.46 L0 481.96 C0 483.61 1.35 484.96 3 484.96 L50.25
								 484.96 C51.9 484.96 53.25 483.61 53.25 481.96 L53.25 447.46 C53.25 445.81 51.9 444.46 50.25 444.46
								 ZM44.25 446.71 L46.5 446.71 L46.5 448.96 L44.25 448.96 L44.25 446.71 ZM39.75 446.71 L42 446.71 L42
								 448.96 L39.75 448.96 L39.75 446.71 ZM51 481.96 C51 482.41 50.7 482.71 50.25 482.71 L3 482.71 C2.55
								 482.71 2.25 482.41 2.25 481.96 L2.25 451.96 L51 451.96 L51 481.96 ZM51 448.96 L48.75 448.96 L48.75
								 446.71 L51 446.71 L51 448.96 Z" class="st8"/>
				</g>
			</g>
		</g>
		<g id="group527-127" transform="translate(203.162,-316.032)">
			<title>Application, Hybrid</title>
			<g id="group528-128" transform="translate(1.15907E-13,-4.5)">
				<title>Planilha.528</title>
				<g id="shape529-129">
					<title>Planilha.529</title>
					<path d="M5.25 484.96 C2.32 484.96 0 482.64 0 479.71 L0 445.21 C0 442.29 2.32 439.96 5.25 439.96 L52.5 439.96
								 C55.43 439.96 57.75 442.29 57.75 445.21 L57.75 479.71 C57.75 482.64 55.43 484.96 52.5 484.96 L5.25
								 484.96 Z" class="st5"/>
				</g>
				<g id="shape530-131" transform="translate(2.25,-2.25)">
					<title>Planilha.530</title>
					<path d="M50.25 444.46 L3 444.46 C1.35 444.46 0 445.81 0 447.46 L0 481.96 C-0 483.61 1.35 484.96 3 484.96 L50.25
								 484.96 C51.9 484.96 53.25 483.61 53.25 481.96 L53.25 447.46 C53.25 445.81 51.9 444.46 50.25 444.46
								 ZM44.25 446.71 L46.5 446.71 L46.5 448.96 L44.25 448.96 L44.25 446.71 ZM39.75 446.71 L42 446.71 L42
								 448.96 L39.75 448.96 L39.75 446.71 ZM51 481.96 C51 482.41 50.7 482.71 50.25 482.71 L3 482.71 C2.55
								 482.71 2.25 482.41 2.25 481.96 L2.25 451.96 L51 451.96 L51 481.96 ZM51 448.96 L48.75 448.96 L48.75
								 446.71 L51 446.71 L51 448.96 Z" class="st7"/>
				</g>
			</g>
			<g id="group531-133" transform="translate(15.75,-1.7053E-13)">
				<title>Planilha.531</title>
				<g id="shape532-134">
					<title>Planilha.532</title>
					<path d="M0 473.71 L0 468.09 L22.43 455.71 L22.43 465.54 L12.98 470.79 L22.43 475.44 L22.43 484.96 L0 473.71 Z"
							class="st5"/>
				</g>
				<g id="shape533-136" transform="translate(2.25,-3.675)">
					<title>Planilha.533</title>
					<path d="M17.93 480.46 L5.85 474.54 L17.93 467.86 L17.93 463.21 L0 473.11 L0 475.96 L17.93 484.96 L17.93 480.46
								 Z" class="st7"/>
				</g>
				<g id="shape534-138" transform="translate(25.575,0)">
					<title>Planilha.534</title>
					<path d="M0 475.44 L9.45 470.79 L0 465.54 L0 455.71 L22.43 468.09 L22.43 473.71 L0 484.96 L0 475.44 Z"
							class="st5"/>
				</g>
				<g id="shape535-140" transform="translate(27.825,-3.675)">
					<title>Planilha.535</title>
					<path d="M0 463.21 L0 467.86 L12.08 474.54 L0 480.46 L0 484.96 L17.93 475.96 L17.93 473.11 L0 463.21 Z"
							class="st7"/>
				</g>
			</g>
			<g id="shape536-142" transform="translate(37.5,-6)">
				<title>Planilha.536</title>
				<rect x="0" y="481.211" width="6" height="3.75" class="st5"/>
			</g>
		</g>
		<g id="shape537-144" transform="translate(45.1427,-292.522)">
			<title>Planilha.537</title>
			<desc>HTML5</desc>
			<rect x="0" y="472.205" width="56.6929" height="12.7559" class="st9"/>
			<text x="10.99" y="482.18" class="st4">HTML5</text>		</g>
		<g id="shape538-147" transform="translate(124.153,-286.696)">
			<title>Planilha.538</title>
			<desc>CSS3</desc>
			<rect x="0" y="464.961" width="51" height="20" class="st9"/>
			<text x="13.75" y="478.56" class="st4">CSS3</text>		</g>
		<g id="shape540-150" transform="translate(203.162,-286.696)">
			<title>Planilha.540</title>
			<desc>JAVASCRIPT</desc>
			<rect x="0" y="464.961" width="76" height="20" class="st9"/>
			<text x="8.99" y="478.56" class="st4">JAVASCRIPT</text>		</g>
		<g id="shape542-153" transform="translate(110.471,596.728) scale(1,-1)">
			<title>Chave lateral</title>
			<desc>Bootstrap</desc>
			<path d="M0 465.12 L0 477.87 A7.0865 7.0865 -180 0 0 7.09 484.96 L71 484.96 A7.0865 7.0865 0 0 1 78.09 492.05 A7.0865
						 7.0865 0 0 1 85.18 484.96 L149.35 484.96 A7.0865 7.0865 -180 0 0 156.44 477.87 L156.44 465.12"
					class="st15"/>
			<text x="499.95" y="82.89" transform="rotate(-90) scale(-1,1)" class="st17">Bootstrap</text>		</g>
		<g id="shape543-157" transform="translate(275.538,-276.508) scale(-1,1)">
			<title>Chave lateral.543</title>
			<desc>Angular</desc>
			<path d="M0 470.79 L0 477.87 A7.0865 7.0865 -180 0 0 7.09 484.96 L35.43 484.96 A7.0865 7.0865 0 0 1 42.52 492.05 A7.0865
						 7.0865 0 0 1 49.61 484.96 L70.98 484.96 A7.0865 7.0865 -180 0 0 78.07 477.87 L78.07 470.79" class="st15"/>
			<text x="-557.3" y="-37.72" transform="rotate(90) scale(-1,1)" class="st17">Angular</text>		</g>
		<g id="group584-161" transform="translate(121.88,-35.5628)">
			<title>Cluster Server</title>
			<g id="group585-162" transform="translate(0,-13.5)">
				<title>Planilha.585</title>
				<g id="shape586-163">
					<title>Planilha.586</title>
					<path d="M0 484.96 L0 439.96 C0 437.04 2.32 434.71 5.25 434.71 L21.75 434.71 C24.68 434.71 27 437.04 27 439.96
								 L27 484.96 L0 484.96 Z" class="st5"/>
				</g>
				<g id="shape587-165" transform="translate(2.25,-2.25)">
					<title>Planilha.587</title>
					<path d="M19.5 439.21 L3 439.21 C1.35 439.21 0 440.56 0 442.21 L0 484.96 L22.5 484.96 L22.5 442.21 C22.5 440.56
								 21.15 439.21 19.5 439.21 ZM17.25 478.96 L5.25 478.96 L5.25 476.71 L17.25 476.71 L17.25 478.96 ZM17.25
								 472.96 L5.25 472.96 L5.25 470.71 L17.25 470.71 L17.25 472.96 ZM17.25 448.21 L5.25 448.21 L5.25 445.96
								 L17.25 445.96 L17.25 448.21 Z" class="st6"/>
				</g>
			</g>
			<g id="group588-167" transform="translate(27,-13.5)">
				<title>Planilha.588</title>
				<g id="shape589-168">
					<title>Planilha.589</title>
					<path d="M0 484.96 L0 439.96 C0 437.04 2.32 434.71 5.25 434.71 L21.75 434.71 C24.68 434.71 27 437.04 27 439.96
								 L27 484.96 L0 484.96 Z" class="st5"/>
				</g>
				<g id="shape590-170" transform="translate(2.25,-2.25)">
					<title>Planilha.590</title>
					<path d="M19.5 439.21 L3 439.21 C1.35 439.21 0 440.56 0 442.21 L0 484.96 L22.5 484.96 L22.5 442.21 C22.5 440.56
								 21.15 439.21 19.5 439.21 ZM17.25 478.96 L5.25 478.96 L5.25 476.71 L17.25 476.71 L17.25 478.96 ZM17.25
								 472.96 L5.25 472.96 L5.25 470.71 L17.25 470.71 L17.25 472.96 ZM17.25 448.21 L5.25 448.21 L5.25 445.96
								 L17.25 445.96 L17.25 448.21 Z" class="st6"/>
				</g>
			</g>
			<g id="group591-172" transform="translate(13.5,3.41061E-13)">
				<title>Planilha.591</title>
				<g id="shape592-173">
					<title>Planilha.592</title>
					<path d="M0 484.96 L0 439.96 C0 437.04 2.32 434.71 5.25 434.71 L21.75 434.71 C24.68 434.71 27 437.04 27 439.96
								 L27 484.96 L0 484.96 Z" class="st5"/>
				</g>
				<g id="shape593-175" transform="translate(2.25,-2.25)">
					<title>Planilha.593</title>
					<path d="M19.5 439.21 L3 439.21 C1.35 439.21 0 440.56 0 442.21 L0 484.96 L22.5 484.96 L22.5 442.21 C22.5 440.56
								 21.15 439.21 19.5 439.21 ZM17.25 478.96 L5.25 478.96 L5.25 476.71 L17.25 476.71 L17.25 478.96 ZM17.25
								 472.96 L5.25 472.96 L5.25 470.71 L17.25 470.71 L17.25 472.96 ZM17.25 448.21 L5.25 448.21 L5.25 445.96
								 L17.25 445.96 L17.25 448.21 Z" class="st6"/>
				</g>
			</g>
		</g>
		<g id="shape594-177" transform="translate(234.072,-191.468)">
			<title>Conector dinâmico.594</title>
			<desc>JSON</desc>
			<path d="M0 494.41 L0 494.77 L0 608.99 L-41.48 608.99" class="st18"/>
			<rect x="-8.48441" y="551.027" width="16.9689" height="9.59985" class="st12"/>
			<text x="-8.48" y="558.23" class="st20">JSON</text>		</g>
		<g id="shape595-188" transform="translate(58.8593,-189.05)">
			<title>Planilha.595</title>
			<desc>HTTP - GET / PUT / POST /DELETE Accept: application/json Cont...</desc>
			<rect x="0" y="440.023" width="171.843" height="44.9376" class="st9"/>
			<text x="4" y="451.69" class="st21">HTTP<tspan class="st22"> </tspan><tspan class="st22">-</tspan><tspan class="st22"> </tspan><tspan
						class="st23">GET / PUT / POST /DELETE </tspan><tspan x="4" dy="1.2em" class="st10">Accept</tspan><tspan
						class="st24">: application/json </tspan><tspan x="4" dy="1.2em" class="st10">Content</tspan>-Type<tspan
						class="st24">: application/json</tspan></text>		</g>
		<g id="shape598-199" transform="translate(18.375,-106.429)">
			<title>Planilha.598</title>
			<desc>REST – api.caixa/v1/recurso/{id}</desc>
			<rect x="0" y="462.35" width="198.61" height="22.6109" class="st9"/>
			<text x="18.32" y="477.26" class="st25">REST – api.caixa/v1/recurso/{id}</text>		</g>
		<g id="group614-202" transform="translate(364.202,-400.042)">
			<title>Cell Phone, iPhone, Proportional</title>
			<g id="group615-203">
				<title>Planilha.615</title>
				<g id="group616-204">
					<title>Planilha.616</title>
					<g id="group617-205">
						<title>Planilha.617</title>
						<g id="shape618-206">
							<title>Planilha.618</title>
							<path d="M7.76 484.96 C3.75 484.96 0 481.21 0 477.2 L0 434.53 C0 430.52 3.75 426.77 7.76 426.77 L29.74
										 426.77 C33.75 426.77 37.5 430.52 37.5 434.53 L37.5 477.2 C37.5 481.21 33.75 484.96 29.74
										 484.96 L7.76 484.96 Z" class="st5"/>
						</g>
						<g id="shape619-208" transform="translate(3.87931,-3.87931)">
							<title>Planilha.619</title>
							<path d="M25.73 434.53 L3.88 434.53 C1.68 434.53 0 436.21 0 438.41 L0 481.08 C-0 483.28 1.68 484.96 3.88
										 484.96 L25.73 484.96 C27.93 484.96 29.61 483.28 29.61 481.08 L29.61 438.41 C29.61 436.21
										 27.8 434.53 25.73 434.53 ZM25.86 475.91 L3.88 475.91 L3.88 442.29 L25.86 442.29 L25.86 475.91
										 Z" class="st8"/>
						</g>
					</g>
					<g id="shape620-210" transform="translate(15.2586,-50.5603)">
						<title>Planilha.620</title>
						<path d="M6.98 484.57 C6.98 484.83 6.85 484.96 6.59 484.96 L0.39 484.96 C0.13 484.96 0 484.7 0 484.57 C0
									 484.31 0.13 484.18 0.39 484.18 L6.59 484.18 C6.72 484.06 6.98 484.31 6.98 484.57 Z"
								class="st5"/>
					</g>
				</g>
				<g id="shape621-212" transform="translate(16.8103,-6.46552)">
					<title>Planilha.621</title>
					<ellipse cx="1.93966" cy="483.021" rx="1.93966" ry="1.93966" class="st5"/>
				</g>
			</g>
		</g>
		<g id="group622-214" transform="translate(415.875,-400.042)">
			<title>Device, Mac Client</title>
			<g id="group623-215">
				<title>Planilha.623</title>
				<g id="shape624-216">
					<title>Planilha.624</title>
					<path d="M21.45 484.89 C19.95 484.89 18.75 483.69 18.75 482.19 L18.75 481.51 C18.75 480.24 19.57 479.11 20.78
								 478.81 C21.68 478.59 22.2 478.44 22.42 476.56 L5.18 476.56 C2.4 476.64 0 474.24 0 471.39 L0 437.64
								 C0 434.79 2.4 432.39 5.18 432.39 L57.08 432.39 C59.85 432.39 62.25 434.79 62.25 437.64 L62.25 471.39
								 C62.25 474.24 59.85 476.64 57.08 476.64 L39.83 476.64 C40.05 478.51 40.5 478.66 41.47 478.89 C42.68
								 479.19 43.5 480.31 43.5 481.59 L43.5 482.26 C43.5 483.76 42.3 484.96 40.8 484.96 L21.45 484.96 L21.45
								 484.89 Z" class="st5"/>
				</g>
				<g id="shape625-218" transform="translate(2.25,-2.25)">
					<title>Planilha.625</title>
					<path d="M39 484.44 L39 483.76 C39 483.54 38.92 483.31 38.7 483.24 C36 482.64 35.25 481.21 35.25 476.64 L54.82
								 476.64 C56.47 476.64 57.75 475.21 57.75 473.64 L57.75 439.89 C57.75 438.31 56.4 436.89 54.82 436.89
								 L2.93 436.89 C1.35 436.89 -0 438.31 0 439.89 L0 473.64 C0 475.21 1.35 476.64 2.93 476.64 L22.5 476.64
								 C22.5 481.21 21.75 482.64 19.05 483.31 C18.83 483.39 18.75 483.61 18.75 483.84 L18.75 484.51 C18.75
								 484.74 18.98 484.96 19.2 484.96 L38.55 484.96 C38.77 484.89 39 484.66 39 484.44 ZM54 469.14 L3.75
								 469.14 L3.75 440.64 L54 440.64 L54 469.14 Z" class="st8"/>
				</g>
			</g>
		</g>
		<g id="group626-220" transform="translate(492.298,-400.042)">
			<title>Device, Tablet, iPad</title>
			<g id="group627-221">
				<title>Planilha.627</title>
				<g id="shape628-222">
					<title>Planilha.628</title>
					<path d="M5.25 484.96 C2.33 484.96 0 482.64 0 479.71 L0 433.21 C0 430.29 2.33 427.96 5.25 427.96 L38.25 427.96
								 C41.17 427.96 43.5 430.29 43.5 433.21 L43.5 479.71 C43.5 482.64 41.17 484.96 38.25 484.96 L5.25
								 484.96 Z" class="st5"/>
				</g>
				<g id="shape629-224" transform="translate(2.25,-2.25)">
					<title>Planilha.629</title>
					<path d="M39 481.96 C39 483.61 37.65 484.96 36 484.96 L3 484.96 C1.35 484.96 0 483.61 0 481.96 L0 435.46 C-0
								 433.81 1.35 432.46 3 432.46 L36 432.46 C37.65 432.46 39 433.81 39 435.46 L39 481.96 Z"
							class="st26"/>
				</g>
				<g id="shape630-226" transform="translate(6,-8.25)">
					<title>Planilha.630</title>
					<rect x="0" y="444.461" width="31.5" height="40.5" class="st5"/>
				</g>
				<g id="shape631-228" transform="translate(21,-51)">
					<title>Planilha.631</title>
					<ellipse cx="0.75" cy="484.211" rx="0.75" ry="0.75" class="st5"/>
				</g>
				<g id="shape632-230" transform="translate(20.25,-3.75)">
					<title>Planilha.632</title>
					<ellipse cx="1.5" cy="483.461" rx="1.5" ry="1.5" class="st5"/>
				</g>
			</g>
		</g>
		<g id="shape681-232" transform="translate(-177.452,466.841) rotate(-90)">
			<title>Texto explic. - caixa lateral</title>
			<desc>API Manager ou Servidor da aplicação</desc>
			<path d="M0 484.96 L0 395.67 L44 395.67 L44 484.96 L0 484.96 Z" class="st27"/>
			<path d="M49.32 360.23 L22 395.67" class="st15"/>
			<path d="M0 484.96 L0 395.67 L44 395.67 L44 484.96 L0 484.96" class="st15"/>
			<rect x="399.669" y="-40.0017" width="70.0153" height="36.0003" transform="rotate(90)" class="st12"/>
			<text x="399.67" y="-31" transform="rotate(90)" class="st28">API Manager<tspan x="399.67" dy="1.2em" class="st10">ou Servidor da </tspan><tspan
						x="399.67" dy="1.2em" class="st10">aplicação</tspan></text>		</g>
	</g>
</svg>
